semester 2/LogicCircuitDesignAndExperimentation/FourBitsRegister/simulation/qsim/FourBitsRegister.msim.vcd
$comment
	File created using the following command:
		vcd file FourBitsRegister.msim.vcd -direction
$end
$date
	Fri Sep 27 06:40:13 2024
$end
$version
	ModelSim Version 2020.1
$end
$timescale
	1ps
$end

$scope module FourBitsRegister_vlg_vec_tst $end
$var reg 1 ! Ce $end
$var reg 1 " CLK $end
$var reg 1 # d1 $end
$var reg 1 $ d2 $end
$var reg 1 % d3 $end
$var reg 1 & d4 $end
$var reg 1 ' RST $end
$var wire 1 ( q1 $end
$var wire 1 ) q2 $end
$var wire 1 * q3 $end
$var wire 1 + q4 $end

$scope module i1 $end
$var wire 1 , gnd $end
$var wire 1 - vcc $end
$var wire 1 . unknown $end
$var tri1 1 / devclrn $end
$var tri1 1 0 devpor $end
$var tri1 1 1 devoe $end
$var wire 1 2 ~QUARTUS_CREATED_GND~I_combout $end
$var wire 1 3 Ce~input_o $end
$var wire 1 4 CLK~input_o $end
$var wire 1 5 inst~combout $end
$var wire 1 6 d1~input_o $end
$var wire 1 7 RST~input_o $end
$var wire 1 8 inst6~q $end
$var wire 1 9 d2~input_o $end
$var wire 1 : inst7~q $end
$var wire 1 ; d3~input_o $end
$var wire 1 < inst8~q $end
$var wire 1 = d4~input_o $end
$var wire 1 > inst9~feeder_combout $end
$var wire 1 ? inst9~q $end
$upscope $end
$upscope $end
$enddefinitions $end
#0
$dumpvars
0!
0"
0#
0$
0%
0&
1'
0(
0)
0*
0+
0,
1-
x.
1/
10
11
02
03
04
05
06
17
08
09
0:
0;
0<
0=
0>
0?
$end
#5000
1"
14
#10000
0"
04
#15000
1"
14
#20000
0"
04
#25000
1"
14
#30000
0"
04
#35000
1"
14
#40000
0"
04
#45000
1"
14
#50000
0"
04
#55000
1"
14
#60000
0"
04
#65000
1"
14
#70000
1!
1#
1%
0"
13
16
1;
04
#75000
1"
14
15
1<
18
1(
1*
#80000
0"
04
05
#85000
1"
14
15
#90000
0!
0#
0%
0"
03
06
0;
04
05
#95000
1"
14
#100000
0"
04
#105000
1"
14
#110000
0"
04
#115000
1"
14
#120000
0"
04
#125000
1"
14
#130000
1$
1&
1!
0"
19
1=
13
04
1>
#135000
1"
14
15
1?
0<
1:
08
0(
1)
0*
1+
#140000
0"
04
05
#145000
1"
14
15
#150000
0"
04
05
#155000
1"
14
15
#160000
0$
0&
0!
0"
09
0=
03
04
05
0>
#165000
1"
14
#170000
0"
04
#175000
1"
14
#180000
0"
04
#185000
1"
14
#190000
0"
04
#195000
1"
14
#200000
0"
04
#205000
1"
14
#210000
0"
04
#215000
1"
14
#220000
0"
04
#225000
1"
14
#230000
0"
04
#235000
1"
14
#240000
0"
04
#245000
1"
14
#250000
0"
04
#255000
1"
14
#260000
0"
04
#265000
1"
14
#270000
0"
04
#275000
1"
14
#280000
0"
04
#285000
1"
14
#290000
0"
04
#295000
1"
14
#300000
0"
04
#305000
1"
14
#310000
0"
04
#315000
1"
14
#320000
0"
04
#325000
1"
14
#330000
0"
04
#335000
1"
14
#340000
0"
04
#345000
1"
14
#350000
0"
04
#355000
1"
14
#360000
0"
04
#365000
1"
14
#370000
0"
04
#375000
1"
14
#380000
0"
04
#385000
1"
14
#390000
0"
04
#395000
1"
14
#400000
0"
04
#405000
1"
14
#410000
0"
04
#415000
1"
14
#420000
0"
04
#425000
1"
14
#430000
0"
04
#435000
1"
14
#440000
0"
04
#445000
1"
14
#450000
0"
04
#455000
1"
14
#460000
0"
04
#465000
1"
14
#470000
0"
04
#475000
1"
14
#480000
0"
04
#485000
1"
14
#490000
0"
04
#495000
1"
14
#500000
0"
04
#505000
1"
14
#510000
0"
04
#515000
1"
14
#520000
0"
04
#525000
1"
14
#530000
0"
04
#535000
1"
14
#540000
0"
04
#545000
1"
14
#550000
0"
04
#555000
1"
14
#560000
0"
04
#565000
1"
14
#570000
0"
04
#575000
1"
14
#580000
0"
04
#585000
1"
14
#590000
0"
04
#595000
1"
14
#600000
0"
04
#605000
1"
14
#610000
0"
04
#615000
1"
14
#620000
0"
04
#625000
1"
14
#630000
0"
04
#635000
1"
14
#640000
0"
04
#645000
1"
14
#650000
0"
04
#655000
1"
14
#660000
0"
04
#665000
1"
14
#670000
0"
04
#675000
1"
14
#680000
0"
04
#685000
1"
14
#690000
0"
04
#695000
1"
14
#700000
0"
04
#705000
1"
14
#710000
0"
04
#715000
1"
14
#720000
0"
04
#725000
1"
14
#730000
0"
04
#735000
1"
14
#740000
0"
04
#745000
1"
14
#750000
0"
04
#755000
1"
14
#760000
0"
04
#765000
1"
14
#770000
0"
04
#775000
1"
14
#780000
0"
04
#785000
1"
14
#790000
0"
04
#795000
1"
14
#800000
0"
04
#805000
1"
14
#810000
0"
04
#815000
1"
14
#820000
0"
04
#825000
1"
14
#830000
0"
04
#835000
1"
14
#840000
0"
04
#845000
1"
14
#850000
0"
04
#855000
1"
14
#860000
0"
04
#865000
1"
14
#870000
0"
04
#875000
1"
14
#880000
0"
04
#885000
1"
14
#890000
0"
04
#895000
1"
14
#900000
0"
04
#905000
1"
14
#910000
0"
04
#915000
1"
14
#920000
0"
04
#925000
1"
14
#930000
0"
04
#935000
1"
14
#940000
0"
04
#945000
1"
14
#950000
0"
04
#955000
1"
14
#960000
0"
04
#965000
1"
14
#970000
0"
04
#975000
1"
14
#980000
0"
04
#985000
1"
14
#990000
0"
04
#995000
1"
14
