semester 2/LogicCircuitDesignAndExperimentation/FourBitsRegister/simulation/qsim/FourBitsRegister.msim.vcd
$comment
	File created using the following command:
		vcd file FourBitsRegister.msim.vcd -direction
$end
$date
	Mon Oct 14 20:39:19 2024
$end
$version
	ModelSim Version 2020.1
$end
$timescale
	1ps
$end

$scope module FourBitsRegister_vlg_vec_tst $end
$var reg 4 ! bin [3:0] $end
$var reg 1 " Ce $end
$var reg 1 # CLK $end
$var reg 1 $ RST $end
$var wire 1 % bout [3] $end
$var wire 1 & bout [2] $end
$var wire 1 ' bout [1] $end
$var wire 1 ( bout [0] $end

$scope module i1 $end
$var wire 1 ) gnd $end
$var wire 1 * vcc $end
$var wire 1 + unknown $end
$var tri1 1 , devclrn $end
$var tri1 1 - devpor $end
$var tri1 1 . devoe $end
$var wire 1 / ~QUARTUS_CREATED_GND~I_combout $end
$var wire 1 0 Ce~input_o $end
$var wire 1 1 CLK~input_o $end
$var wire 1 2 inst~combout $end
$var wire 1 3 bin[3]~input_o $end
$var wire 1 4 RST~input_o $end
$var wire 1 5 inst9~q $end
$var wire 1 6 bin[2]~input_o $end
$var wire 1 7 inst8~q $end
$var wire 1 8 bin[1]~input_o $end
$var wire 1 9 inst7~q $end
$var wire 1 : bin[0]~input_o $end
$var wire 1 ; inst6~feeder_combout $end
$var wire 1 < inst6~q $end
$upscope $end
$upscope $end
$enddefinitions $end
#0
$dumpvars
b0 !
0"
0#
1$
0(
0'
0&
0%
0)
1*
x+
1,
1-
1.
0/
00
01
02
03
14
05
06
07
08
09
0:
0;
0<
$end
#5000
1#
11
#10000
0#
01
#15000
1#
11
#20000
0#
01
#25000
1#
11
#30000
0#
01
#35000
1#
11
#40000
0#
01
#45000
1#
11
#50000
0#
01
#55000
1#
11
#60000
0#
01
#65000
1#
11
#70000
1"
b1000 !
b1010 !
0#
10
18
13
01
#75000
1#
11
12
19
15
1%
1'
#80000
0#
01
02
#85000
1#
11
12
#90000
0"
b10 !
b0 !
0#
00
08
03
01
02
#95000
1#
11
#100000
0#
01
#105000
1#
11
#110000
0#
01
#115000
1#
11
#120000
0#
01
#125000
1#
11
#130000
b100 !
b101 !
1"
0#
1:
16
10
01
1;
#135000
1#
11
12
1<
09
17
05
0%
1&
0'
1(
#140000
0#
01
02
#145000
1#
11
12
#150000
0#
01
02
#155000
1#
11
12
#160000
b1 !
b0 !
0"
0#
0:
06
00
01
02
0;
#165000
1#
11
#170000
0#
01
#175000
1#
11
#180000
0#
01
#185000
1#
11
#190000
0#
01
#195000
1#
11
#200000
0#
01
#205000
1#
11
#210000
0#
01
#215000
1#
11
#220000
0#
01
#225000
1#
11
#230000
0#
01
#235000
1#
11
#240000
0#
01
#245000
1#
11
#250000
0#
01
#255000
1#
11
#260000
0#
01
#265000
1#
11
#270000
0#
01
#275000
1#
11
#280000
0#
01
#285000
1#
11
#290000
0#
01
#295000
1#
11
#300000
0#
01
#305000
1#
11
#310000
0#
01
#315000
1#
11
#320000
0#
01
#325000
1#
11
#330000
0#
01
#335000
1#
11
#340000
0#
01
#345000
1#
11
#350000
0#
01
#355000
1#
11
#360000
0#
01
#365000
1#
11
#370000
0#
01
#375000
1#
11
#380000
0#
01
#385000
1#
11
#390000
0#
01
#395000
1#
11
#400000
0#
01
#405000
1#
11
#410000
0#
01
#415000
1#
11
#420000
0#
01
#425000
1#
11
#430000
0#
01
#435000
1#
11
#440000
0#
01
#445000
1#
11
#450000
0#
01
#455000
1#
11
#460000
0#
01
#465000
1#
11
#470000
0#
01
#475000
1#
11
#480000
0#
01
#485000
1#
11
#490000
0#
01
#495000
1#
11
#500000
0#
01
#505000
1#
11
#510000
0#
01
#515000
1#
11
#520000
0#
01
#525000
1#
11
#530000
0#
01
#535000
1#
11
#540000
0#
01
#545000
1#
11
#550000
0#
01
#555000
1#
11
#560000
0#
01
#565000
1#
11
#570000
0#
01
#575000
1#
11
#580000
0#
01
#585000
1#
11
#590000
0#
01
#595000
1#
11
#600000
0#
01
#605000
1#
11
#610000
0#
01
#615000
1#
11
#620000
0#
01
#625000
1#
11
#630000
0#
01
#635000
1#
11
#640000
0#
01
#645000
1#
11
#650000
0#
01
#655000
1#
11
#660000
0#
01
#665000
1#
11
#670000
0#
01
#675000
1#
11
#680000
0#
01
#685000
1#
11
#690000
0#
01
#695000
1#
11
#700000
0#
01
#705000
1#
11
#710000
0#
01
#715000
1#
11
#720000
0#
01
#725000
1#
11
#730000
0#
01
#735000
1#
11
#740000
0#
01
#745000
1#
11
#750000
0#
01
#755000
1#
11
#760000
0#
01
#765000
1#
11
#770000
0#
01
#775000
1#
11
#780000
0#
01
#785000
1#
11
#790000
0#
01
#795000
1#
11
#800000
0#
01
#805000
1#
11
#810000
0#
01
#815000
1#
11
#820000
0#
01
#825000
1#
11
#830000
0#
01
#835000
1#
11
#840000
0#
01
#845000
1#
11
#850000
0#
01
#855000
1#
11
#860000
0#
01
#865000
1#
11
#870000
0#
01
#875000
1#
11
#880000
0#
01
#885000
1#
11
#890000
0#
01
#895000
1#
11
#900000
0#
01
#905000
1#
11
#910000
0#
01
#915000
1#
11
#920000
0#
01
#925000
1#
11
#930000
0#
01
#935000
1#
11
#940000
0#
01
#945000
1#
11
#950000
0#
01
#955000
1#
11
#960000
0#
01
#965000
1#
11
#970000
0#
01
#975000
1#
11
#980000
0#
01
#985000
1#
11
#990000
0#
01
#995000
1#
11
