semester 2/LogicCircuitDesignAndExperimentation/FullAdder/simulation/qsim/FullAdder.msim.vcd
$comment
	File created using the following command:
		vcd file FullAdder.msim.vcd -direction
$end
$date
	Fri Sep 27 06:19:41 2024
$end
$version
	ModelSim Version 2020.1
$end
$timescale
	1ps
$end

$scope module FullAdder_vlg_vec_tst $end
$var reg 1 ! A $end
$var reg 1 " B $end
$var reg 1 # Cin $end
$var wire 1 $ Cout $end
$var wire 1 % S $end

$scope module i1 $end
$var wire 1 & gnd $end
$var wire 1 ' vcc $end
$var wire 1 ( unknown $end
$var tri1 1 ) devclrn $end
$var tri1 1 * devpor $end
$var tri1 1 + devoe $end
$var wire 1 , ~QUARTUS_CREATED_GND~I_combout $end
$var wire 1 - B~input_o $end
$var wire 1 . Cin~input_o $end
$var wire 1 / A~input_o $end
$var wire 1 0 inst2|inst~combout $end
$var wire 1 1 inst3~combout $end
$upscope $end
$upscope $end
$enddefinitions $end
#0
$dumpvars
0!
0"
0#
0$
0%
0&
1'
x(
1)
1*
1+
0,
0-
0.
0/
00
01
$end
#20000
1#
1.
10
1%
#40000
1"
0#
1-
0.
#60000
1#
1.
11
00
0%
1$
#80000
1!
0"
0#
1/
0-
0.
01
10
1%
0$
#100000
1#
1.
11
00
0%
1$
#120000
1"
0#
1-
0.
#140000
1#
1.
10
1%
#160000
0!
0"
0#
0/
0-
0.
01
00
0%
0$
