semester 2/LogicCircuitDesignAndExperimentation/FPGAKeypadBinaryShiftRegisterLED/simulation/qsim/FPGAKeypadBinaryShiftRegisterLED.msim.vcd
$comment
	File created using the following command:
		vcd file FPGAKeypadBinaryShiftRegisterLED.msim.vcd -direction
$end
$date
	Fri Oct 18 19:51:06 2024
$end
$version
	ModelSim Version 2020.1
$end
$timescale
	1ps
$end

$scope module FPGAKeypadBinaryShiftRegisterLED_vlg_vec_tst $end
$var reg 1 ! CLK $end
$var reg 12 " Keypad [11:0] $end
$var reg 1 # RST $end
$var wire 1 $ Aout [3] $end
$var wire 1 % Aout [2] $end
$var wire 1 & Aout [1] $end
$var wire 1 ' Aout [0] $end
$var wire 1 ( Bout [3] $end
$var wire 1 ) Bout [2] $end
$var wire 1 * Bout [1] $end
$var wire 1 + Bout [0] $end

$scope module i1 $end
$var wire 1 , gnd $end
$var wire 1 - vcc $end
$var wire 1 . unknown $end
$var tri1 1 / devclrn $end
$var tri1 1 0 devpor $end
$var tri1 1 1 devoe $end
$var wire 1 2 Keypad[11]~input_o $end
$var wire 1 3 Keypad[10]~input_o $end
$var wire 1 4 ~QUARTUS_CREATED_GND~I_combout $end
$var wire 1 5 CLK~input_o $end
$var wire 1 6 CLK~inputCLKENA0_outclk $end
$var wire 1 7 Keypad[9]~input_o $end
$var wire 1 8 Keypad[8]~input_o $end
$var wire 1 9 Keypad[0]~input_o $end
$var wire 1 : inst|inst7~0_combout $end
$var wire 1 ; RST~input_o $end
$var wire 1 < Keypad[6]~input_o $end
$var wire 1 = Keypad[4]~input_o $end
$var wire 1 > Keypad[1]~input_o $end
$var wire 1 ? Keypad[5]~input_o $end
$var wire 1 @ Keypad[7]~input_o $end
$var wire 1 A Keypad[3]~input_o $end
$var wire 1 B inst|inst12121~0_combout $end
$var wire 1 C Keypad[2]~input_o $end
$var wire 1 D inst|inst12121~combout $end
$var wire 1 E inst2|inst~q $end
$var wire 1 F inst2|inst1~q $end
$var wire 1 G inst2|inst2~combout $end
$var wire 1 H inst1|inst|inst3~q $end
$var wire 1 I inst|inst6~0_combout $end
$var wire 1 J inst1|inst|inst2~q $end
$var wire 1 K inst|inst5~0_combout $end
$var wire 1 L inst1|inst|inst1~q $end
$var wire 1 M inst|inst4~0_combout $end
$var wire 1 N inst1|inst|inst~q $end
$var wire 1 O inst1|inst1|inst3~q $end
$var wire 1 P inst1|inst1|inst2~q $end
$var wire 1 Q inst1|inst1|inst1~q $end
$var wire 1 R inst1|inst1|inst~q $end
$upscope $end
$upscope $end
$enddefinitions $end
#0
$dumpvars
0!
b0 "
1#
0'
0&
0%
0$
0+
0*
0)
0(
0,
1-
x.
1/
10
11
02
03
04
05
06
07
08
09
0:
1;
0<
0=
0>
0?
0@
0A
1B
0C
0D
0E
0F
0G
0H
0I
0J
0K
0L
0M
0N
0O
0P
0Q
0R
$end
#500
1!
15
16
#1000
0!
05
06
#1500
1!
15
16
#2000
0!
05
06
#2500
1!
15
16
#3000
0!
05
06
#3500
1!
15
16
#4000
0!
05
06
#4500
1!
15
16
#5000
0!
05
06
#5500
1!
15
16
#6000
0!
05
06
#6500
1!
15
16
#7000
0!
05
06
#7500
1!
15
16
#8000
0!
05
06
#8500
1!
15
16
#9000
0!
05
06
#9500
1!
15
16
#10000
0!
05
06
#10500
1!
15
16
#11000
0!
05
06
#11500
1!
15
16
#12000
0!
05
06
#12500
1!
15
16
#13000
0!
05
06
#13500
1!
15
16
#14000
0!
05
06
#14500
1!
15
16
#15000
0!
05
06
#15500
1!
15
16
#16000
0!
05
06
#16500
1!
15
16
#17000
0!
05
06
#17500
1!
15
16
#18000
0!
05
06
#18500
1!
15
16
#19000
0!
05
06
#19500
1!
15
16
#20000
0!
05
06
#20500
1!
15
16
#21000
0!
05
06
#21500
1!
15
16
#22000
0!
05
06
#22500
1!
15
16
#23000
0!
05
06
#23500
1!
15
16
#24000
0!
05
06
#24500
1!
15
16
#25000
0!
05
06
#25500
1!
15
16
#26000
0!
05
06
#26500
1!
15
16
#27000
0!
05
06
#27500
1!
15
16
#28000
0!
05
06
#28500
1!
15
16
#29000
0!
05
06
#29500
1!
15
16
#30000
0!
05
06
#30500
1!
15
16
#31000
0!
05
06
#31500
1!
15
16
#32000
0!
05
06
#32500
1!
15
16
#33000
0!
05
06
#33500
1!
15
16
#34000
0!
05
06
#34500
1!
15
16
#35000
0!
05
06
#35500
1!
15
16
#36000
0!
05
06
#36500
1!
15
16
#37000
0!
05
06
#37500
1!
15
16
#38000
0!
05
06
#38500
1!
15
16
#39000
0!
05
06
#39500
1!
15
16
#40000
0!
05
06
#40500
1!
15
16
#41000
0!
05
06
#41500
1!
15
16
#42000
0!
05
06
#42500
1!
15
16
#43000
0!
05
06
#43500
1!
15
16
#44000
0!
05
06
#44500
1!
15
16
#45000
0!
05
06
#45500
1!
15
16
#46000
0!
05
06
#46500
1!
15
16
#47000
0!
05
06
#47500
1!
15
16
#48000
0!
05
06
#48500
1!
15
16
#49000
0!
05
06
#49500
1!
15
16
#50000
0!
05
06
#50500
1!
15
16
#51000
0!
05
06
#51500
1!
15
16
#52000
0!
05
06
#52500
1!
15
16
#53000
0!
05
06
#53500
1!
15
16
#54000
0!
05
06
#54500
1!
15
16
#55000
0!
05
06
#55500
1!
15
16
#56000
0!
05
06
#56500
1!
15
16
#57000
0!
05
06
#57500
1!
15
16
#58000
0!
05
06
#58500
1!
15
16
#59000
0!
05
06
#59500
1!
15
16
#60000
0!
05
06
#60500
1!
15
16
#61000
0!
05
06
#61500
1!
15
16
#62000
0!
05
06
#62500
1!
15
16
#63000
0!
05
06
#63500
1!
15
16
#64000
0!
05
06
#64500
1!
15
16
#65000
0!
05
06
#65500
1!
15
16
#66000
0!
05
06
#66500
1!
15
16
#67000
0!
05
06
#67500
1!
15
16
#68000
0!
05
06
#68500
1!
15
16
#69000
0!
05
06
#69500
1!
15
16
#70000
0!
05
06
#70500
1!
15
16
#71000
0!
05
06
#71500
1!
15
16
#72000
0!
05
06
#72500
1!
15
16
#73000
0!
05
06
#73500
1!
15
16
#74000
0!
05
06
#74500
1!
15
16
#75000
0!
05
06
#75500
1!
15
16
#76000
0!
05
06
#76500
1!
15
16
#77000
0!
05
06
#77500
1!
15
16
#78000
0!
05
06
#78500
1!
15
16
#79000
0!
05
06
#79500
1!
15
16
#80000
0!
05
06
#80500
1!
15
16
#81000
0!
05
06
#81500
1!
15
16
#82000
0!
05
06
#82500
1!
15
16
#83000
0!
05
06
#83500
1!
15
16
#84000
0!
05
06
#84500
1!
15
16
#85000
0!
05
06
#85500
1!
15
16
#86000
0!
05
06
#86500
1!
15
16
#87000
0!
05
06
#87500
1!
15
16
#88000
0!
05
06
#88500
1!
15
16
#89000
0!
05
06
#89500
1!
15
16
#90000
0!
05
06
#90500
1!
15
16
#91000
0!
05
06
#91500
1!
15
16
#92000
0!
05
06
#92500
1!
15
16
#93000
0!
05
06
#93500
1!
15
16
#94000
0!
05
06
#94500
1!
15
16
#95000
0!
05
06
#95500
1!
15
16
#96000
0!
05
06
#96500
1!
15
16
#97000
0!
05
06
#97500
1!
15
16
#98000
0!
05
06
#98500
1!
15
16
#99000
0!
05
06
#99500
1!
15
16
#100000
0!
05
06
#100500
1!
15
16
#101000
0!
05
06
#101500
1!
15
16
#102000
0!
05
06
#102500
1!
15
16
#103000
0!
05
06
#103500
1!
15
16
#104000
0!
05
06
#104500
1!
15
16
#105000
0!
05
06
#105500
1!
15
16
#106000
0!
05
06
#106500
1!
15
16
#107000
0!
05
06
#107500
1!
15
16
#108000
0!
05
06
#108500
1!
15
16
#109000
0!
05
06
#109500
1!
15
16
#110000
0!
05
06
#110500
1!
15
16
#111000
0!
05
06
#111500
1!
15
16
#112000
0!
05
06
#112500
1!
15
16
#113000
0!
05
06
#113500
1!
15
16
#114000
0!
05
06
#114500
1!
15
16
#115000
0!
05
06
#115500
1!
15
16
#116000
0!
05
06
#116500
1!
15
16
#117000
0!
05
06
#117500
1!
15
16
#118000
0!
05
06
#118500
1!
15
16
#119000
0!
05
06
#119500
1!
15
16
#120000
0!
05
06
#120500
1!
15
16
#121000
0!
05
06
#121500
1!
15
16
#122000
0!
05
06
#122500
1!
15
16
#123000
0!
05
06
#123500
1!
15
16
#124000
0!
05
06
#124500
1!
15
16
#125000
0!
05
06
#125500
1!
15
16
#126000
0!
05
06
#126500
1!
15
16
#127000
0!
05
06
#127500
1!
15
16
#128000
0!
05
06
#128500
1!
15
16
#129000
0!
05
06
#129500
1!
15
16
#130000
0!
05
06
#130500
1!
15
16
#131000
0!
05
06
#131500
1!
15
16
#132000
0!
05
06
#132500
1!
15
16
#133000
0!
05
06
#133500
1!
15
16
#134000
0!
05
06
#134500
1!
15
16
#135000
0!
05
06
#135500
1!
15
16
#136000
0!
05
06
#136500
1!
15
16
#137000
0!
05
06
#137500
1!
15
16
#138000
0!
05
06
#138500
1!
15
16
#139000
0!
05
06
#139500
1!
15
16
#140000
0!
05
06
#140500
1!
15
16
#141000
0!
05
06
#141500
1!
15
16
#142000
0!
05
06
#142500
1!
15
16
#143000
0!
05
06
#143500
1!
15
16
#144000
0!
05
06
#144500
1!
15
16
#145000
0!
05
06
#145500
1!
15
16
#146000
0!
05
06
#146500
1!
15
16
#147000
0!
05
06
#147500
1!
15
16
#148000
0!
05
06
#148500
1!
15
16
#149000
0!
05
06
#149500
1!
15
16
#150000
0!
05
06
#150500
1!
15
16
#151000
0!
05
06
#151500
1!
15
16
#152000
0!
05
06
#152500
1!
15
16
#153000
0!
05
06
#153500
1!
15
16
#154000
0!
05
06
#154500
1!
15
16
#155000
0!
05
06
#155500
1!
15
16
#156000
0!
05
06
#156500
1!
15
16
#157000
0!
05
06
#157500
1!
15
16
#158000
0!
05
06
#158500
1!
15
16
#159000
0!
05
06
#159500
1!
15
16
#160000
0!
05
06
#160500
1!
15
16
#161000
0!
05
06
#161500
1!
15
16
#162000
0!
05
06
#162500
1!
15
16
#163000
0!
05
06
#163500
1!
15
16
#164000
0!
05
06
#164500
1!
15
16
#165000
0!
05
06
#165500
1!
15
16
#166000
0!
05
06
#166500
1!
15
16
#167000
0!
05
06
#167500
1!
15
16
#168000
0!
05
06
#168500
1!
15
16
#169000
0!
05
06
#169500
1!
15
16
#170000
0!
05
06
#170500
1!
15
16
#171000
0!
05
06
#171500
1!
15
16
#172000
0!
05
06
#172500
1!
15
16
#173000
0!
05
06
#173500
1!
15
16
#174000
0!
05
06
#174500
1!
15
16
#175000
0!
05
06
#175500
1!
15
16
#176000
0!
05
06
#176500
1!
15
16
#177000
0!
05
06
#177500
1!
15
16
#178000
0!
05
06
#178500
1!
15
16
#179000
0!
05
06
#179500
1!
15
16
#180000
0!
05
06
#180500
1!
15
16
#181000
0!
05
06
#181500
1!
15
16
#182000
0!
05
06
#182500
1!
15
16
#183000
0!
05
06
#183500
1!
15
16
#184000
0!
05
06
#184500
1!
15
16
#185000
0!
05
06
#185500
1!
15
16
#186000
0!
05
06
#186500
1!
15
16
#187000
0!
05
06
#187500
1!
15
16
#188000
0!
05
06
#188500
1!
15
16
#189000
0!
05
06
#189500
1!
15
16
#190000
b10000 "
0!
1=
05
06
1I
1D
#190500
1!
15
16
1E
1G
#191000
0!
05
06
#191500
1!
15
16
1F
1J
1%
0G
#192000
0!
05
06
#192500
1!
15
16
#193000
0!
05
06
#193500
1!
15
16
#194000
0!
05
06
#194500
1!
15
16
#195000
0!
05
06
#195500
1!
15
16
#196000
0!
05
06
#196500
1!
15
16
#197000
0!
05
06
#197500
1!
15
16
#198000
0!
05
06
#198500
1!
15
16
#199000
0!
05
06
#199500
1!
15
16
#200000
0!
05
06
#200500
1!
15
16
#201000
0!
05
06
#201500
1!
15
16
#202000
0!
05
06
#202500
1!
15
16
#203000
0!
05
06
#203500
1!
15
16
#204000
0!
05
06
#204500
1!
15
16
#205000
0!
05
06
#205500
1!
15
16
#206000
0!
05
06
#206500
1!
15
16
#207000
0!
05
06
#207500
1!
15
16
#208000
0!
05
06
#208500
1!
15
16
#209000
0!
05
06
#209500
1!
15
16
#210000
0!
05
06
#210500
1!
15
16
#211000
0!
05
06
#211500
1!
15
16
#212000
0!
05
06
#212500
1!
15
16
#213000
0!
05
06
#213500
1!
15
16
#214000
0!
05
06
#214500
1!
15
16
#215000
0!
05
06
#215500
1!
15
16
#216000
0!
05
06
#216500
1!
15
16
#217000
0!
05
06
#217500
1!
15
16
#218000
0!
05
06
#218500
1!
15
16
#219000
0!
05
06
#219500
1!
15
16
#220000
0!
05
06
#220500
1!
15
16
#221000
0!
05
06
#221500
1!
15
16
#222000
0!
05
06
#222500
1!
15
16
#223000
0!
05
06
#223500
1!
15
16
#224000
0!
05
06
#224500
1!
15
16
#225000
0!
05
06
#225500
1!
15
16
#226000
0!
05
06
#226500
1!
15
16
#227000
0!
05
06
#227500
1!
15
16
#228000
0!
05
06
#228500
1!
15
16
#229000
0!
05
06
#229500
1!
15
16
#230000
b0 "
0!
0=
05
06
0I
0D
#230500
1!
15
16
0E
#231000
0!
05
06
#231500
1!
15
16
0F
#232000
0!
05
06
#232500
1!
15
16
#233000
0!
05
06
#233500
1!
15
16
#234000
0!
05
06
#234500
1!
15
16
#235000
0!
05
06
#235500
1!
15
16
#236000
0!
05
06
#236500
1!
15
16
#237000
0!
05
06
#237500
1!
15
16
#238000
0!
05
06
#238500
1!
15
16
#239000
0!
05
06
#239500
1!
15
16
#240000
b100000 "
0!
1?
05
06
0B
1M
1I
1D
#240500
1!
15
16
1E
1G
#241000
0!
05
06
#241500
1!
15
16
1F
1P
1N
1'
1)
0G
#242000
0!
05
06
#242500
1!
15
16
#243000
0!
05
06
#243500
1!
15
16
#244000
0!
05
06
#244500
1!
15
16
#245000
0!
05
06
#245500
1!
15
16
#246000
0!
05
06
#246500
1!
15
16
#247000
0!
05
06
#247500
1!
15
16
#248000
0!
05
06
#248500
1!
15
16
#249000
0!
05
06
#249500
1!
15
16
#250000
0!
05
06
#250500
1!
15
16
#251000
0!
05
06
#251500
1!
15
16
#252000
0!
05
06
#252500
1!
15
16
#253000
0!
05
06
#253500
1!
15
16
#254000
0!
05
06
#254500
1!
15
16
#255000
0!
05
06
#255500
1!
15
16
#256000
0!
05
06
#256500
1!
15
16
#257000
0!
05
06
#257500
1!
15
16
#258000
0!
05
06
#258500
1!
15
16
#259000
0!
05
06
#259500
1!
15
16
#260000
0!
05
06
#260500
1!
15
16
#261000
0!
05
06
#261500
1!
15
16
#262000
0!
05
06
#262500
1!
15
16
#263000
0!
05
06
#263500
1!
15
16
#264000
0!
05
06
#264500
1!
15
16
#265000
0!
05
06
#265500
1!
15
16
#266000
0!
05
06
#266500
1!
15
16
#267000
0!
05
06
#267500
1!
15
16
#268000
0!
05
06
#268500
1!
15
16
#269000
0!
05
06
#269500
1!
15
16
#270000
0!
05
06
#270500
1!
15
16
#271000
0!
05
06
#271500
1!
15
16
#272000
0!
05
06
#272500
1!
15
16
#273000
0!
05
06
#273500
1!
15
16
#274000
0!
05
06
#274500
1!
15
16
#275000
0!
05
06
#275500
1!
15
16
#276000
0!
05
06
#276500
1!
15
16
#277000
0!
05
06
#277500
1!
15
16
#278000
0!
05
06
#278500
1!
15
16
#279000
0!
05
06
#279500
1!
15
16
#280000
b0 "
0!
0?
05
06
1B
0M
0I
0D
#280500
1!
15
16
0E
#281000
0!
05
06
#281500
1!
15
16
0F
#282000
0!
05
06
#282500
1!
15
16
#283000
0!
05
06
#283500
1!
15
16
#284000
0!
05
06
#284500
1!
15
16
#285000
0!
05
06
#285500
1!
15
16
#286000
0!
05
06
#286500
1!
15
16
#287000
0!
05
06
#287500
1!
15
16
#288000
0!
05
06
#288500
1!
15
16
#289000
0!
05
06
#289500
1!
15
16
#290000
b1000000 "
0!
1<
05
06
1K
1I
1D
#290500
1!
15
16
1E
1G
#291000
0!
05
06
#291500
1!
15
16
1F
1R
0N
1L
1&
0'
1+
0G
#292000
0!
05
06
#292500
1!
15
16
#293000
0!
05
06
#293500
1!
15
16
#294000
0!
05
06
#294500
1!
15
16
#295000
0!
05
06
#295500
1!
15
16
#296000
0!
05
06
#296500
1!
15
16
#297000
0!
05
06
#297500
1!
15
16
#298000
0!
05
06
#298500
1!
15
16
#299000
0!
05
06
#299500
1!
15
16
#300000
0!
05
06
#300500
1!
15
16
#301000
0!
05
06
#301500
1!
15
16
#302000
0!
05
06
#302500
1!
15
16
#303000
0!
05
06
#303500
1!
15
16
#304000
0!
05
06
#304500
1!
15
16
#305000
0!
05
06
#305500
1!
15
16
#306000
0!
05
06
#306500
1!
15
16
#307000
0!
05
06
#307500
1!
15
16
#308000
0!
05
06
#308500
1!
15
16
#309000
0!
05
06
#309500
1!
15
16
#310000
0!
05
06
#310500
1!
15
16
#311000
0!
05
06
#311500
1!
15
16
#312000
0!
05
06
#312500
1!
15
16
#313000
0!
05
06
#313500
1!
15
16
#314000
0!
05
06
#314500
1!
15
16
#315000
0!
05
06
#315500
1!
15
16
#316000
0!
05
06
#316500
1!
15
16
#317000
0!
05
06
#317500
1!
15
16
#318000
0!
05
06
#318500
1!
15
16
#319000
0!
05
06
#319500
1!
15
16
#320000
0!
05
06
#320500
1!
15
16
#321000
0!
05
06
#321500
1!
15
16
#322000
0!
05
06
#322500
1!
15
16
#323000
0!
05
06
#323500
1!
15
16
#324000
0!
05
06
#324500
1!
15
16
#325000
0!
05
06
#325500
1!
15
16
#326000
0!
05
06
#326500
1!
15
16
#327000
0!
05
06
#327500
1!
15
16
#328000
0!
05
06
#328500
1!
15
16
#329000
0!
05
06
#329500
1!
15
16
#330000
b0 "
0!
0<
05
06
0K
0I
0D
#330500
1!
15
16
0E
#331000
0!
05
06
#331500
1!
15
16
0F
#332000
0!
05
06
#332500
1!
15
16
#333000
0!
05
06
#333500
1!
15
16
#334000
0!
05
06
#334500
1!
15
16
#335000
0!
05
06
#335500
1!
15
16
#336000
0!
05
06
#336500
1!
15
16
#337000
0!
05
06
#337500
1!
15
16
#338000
0!
05
06
#338500
1!
15
16
#339000
0!
05
06
#339500
1!
15
16
#340000
b10000000 "
0!
1@
05
06
0B
1M
1K
1I
1D
#340500
1!
15
16
1E
1G
#341000
0!
05
06
#341500
1!
15
16
1F
0R
1Q
1N
1'
1*
0+
0G
#342000
0!
05
06
#342500
1!
15
16
#343000
0!
05
06
#343500
1!
15
16
#344000
0!
05
06
#344500
1!
15
16
#345000
0!
05
06
#345500
1!
15
16
#346000
0!
05
06
#346500
1!
15
16
#347000
0!
05
06
#347500
1!
15
16
#348000
0!
05
06
#348500
1!
15
16
#349000
0!
05
06
#349500
1!
15
16
#350000
0!
05
06
#350500
1!
15
16
#351000
0!
05
06
#351500
1!
15
16
#352000
0!
05
06
#352500
1!
15
16
#353000
0!
05
06
#353500
1!
15
16
#354000
0!
05
06
#354500
1!
15
16
#355000
0!
05
06
#355500
1!
15
16
#356000
0!
05
06
#356500
1!
15
16
#357000
0!
05
06
#357500
1!
15
16
#358000
0!
05
06
#358500
1!
15
16
#359000
0!
05
06
#359500
1!
15
16
#360000
0!
05
06
#360500
1!
15
16
#361000
0!
05
06
#361500
1!
15
16
#362000
0!
05
06
#362500
1!
15
16
#363000
0!
05
06
#363500
1!
15
16
#364000
0!
05
06
#364500
1!
15
16
#365000
0!
05
06
#365500
1!
15
16
#366000
0!
05
06
#366500
1!
15
16
#367000
0!
05
06
#367500
1!
15
16
#368000
0!
05
06
#368500
1!
15
16
#369000
0!
05
06
#369500
1!
15
16
#370000
0!
05
06
#370500
1!
15
16
#371000
0!
05
06
#371500
1!
15
16
#372000
0!
05
06
#372500
1!
15
16
#373000
0!
05
06
#373500
1!
15
16
#374000
0!
05
06
#374500
1!
15
16
#375000
0!
05
06
#375500
1!
15
16
#376000
0!
05
06
#376500
1!
15
16
#377000
0!
05
06
#377500
1!
15
16
#378000
0!
05
06
#378500
1!
15
16
#379000
0!
05
06
#379500
1!
15
16
#380000
b0 "
0!
0@
05
06
1B
0M
0K
0I
0D
#380500
1!
15
16
0E
#381000
0!
05
06
#381500
1!
15
16
0F
#382000
0!
05
06
#382500
1!
15
16
#383000
0!
05
06
#383500
1!
15
16
#384000
0!
05
06
#384500
1!
15
16
#385000
0!
05
06
#385500
1!
15
16
#386000
0!
05
06
#386500
1!
15
16
#387000
0!
05
06
#387500
1!
15
16
#388000
0!
05
06
#388500
1!
15
16
#389000
0!
05
06
#389500
1!
15
16
#390000
b100000000 "
0!
18
05
06
1:
1D
#390500
1!
15
16
1E
1G
#391000
0!
05
06
#391500
1!
15
16
1F
1R
0N
0L
0J
1H
1$
0%
0&
0'
1+
0G
#392000
0!
05
06
#392500
1!
15
16
#393000
0!
05
06
#393500
1!
15
16
#394000
0!
05
06
#394500
1!
15
16
#395000
0!
05
06
#395500
1!
15
16
#396000
0!
05
06
#396500
1!
15
16
#397000
0!
05
06
#397500
1!
15
16
#398000
0!
05
06
#398500
1!
15
16
#399000
0!
05
06
#399500
1!
15
16
#400000
0!
05
06
#400500
1!
15
16
#401000
0!
05
06
#401500
1!
15
16
#402000
0!
05
06
#402500
1!
15
16
#403000
0!
05
06
#403500
1!
15
16
#404000
0!
05
06
#404500
1!
15
16
#405000
0!
05
06
#405500
1!
15
16
#406000
0!
05
06
#406500
1!
15
16
#407000
0!
05
06
#407500
1!
15
16
#408000
0!
05
06
#408500
1!
15
16
#409000
0!
05
06
#409500
1!
15
16
#410000
0!
05
06
#410500
1!
15
16
#411000
0!
05
06
#411500
1!
15
16
#412000
0!
05
06
#412500
1!
15
16
#413000
0!
05
06
#413500
1!
15
16
#414000
0!
05
06
#414500
1!
15
16
#415000
0!
05
06
#415500
1!
15
16
#416000
0!
05
06
#416500
1!
15
16
#417000
0!
05
06
#417500
1!
15
16
#418000
0!
05
06
#418500
1!
15
16
#419000
0!
05
06
#419500
1!
15
16
#420000
0!
05
06
#420500
1!
15
16
#421000
0!
05
06
#421500
1!
15
16
#422000
0!
05
06
#422500
1!
15
16
#423000
0!
05
06
#423500
1!
15
16
#424000
0!
05
06
#424500
1!
15
16
#425000
0!
05
06
#425500
1!
15
16
#426000
0!
05
06
#426500
1!
15
16
#427000
0!
05
06
#427500
1!
15
16
#428000
0!
05
06
#428500
1!
15
16
#429000
0!
05
06
#429500
1!
15
16
#430000
b0 "
0!
08
05
06
0:
0D
#430500
1!
15
16
0E
#431000
0!
05
06
#431500
1!
15
16
0F
#432000
0!
05
06
#432500
1!
15
16
#433000
0!
05
06
#433500
1!
15
16
#434000
0!
05
06
#434500
1!
15
16
#435000
0!
05
06
#435500
1!
15
16
#436000
0!
05
06
#436500
1!
15
16
#437000
0!
05
06
#437500
1!
15
16
#438000
0!
05
06
#438500
1!
15
16
#439000
0!
05
06
#439500
1!
15
16
#440000
0!
05
06
#440500
1!
15
16
#441000
0!
05
06
#441500
1!
15
16
#442000
0!
05
06
#442500
1!
15
16
#443000
0!
05
06
#443500
1!
15
16
#444000
0!
05
06
#444500
1!
15
16
#445000
0!
05
06
#445500
1!
15
16
#446000
0!
05
06
#446500
1!
15
16
#447000
0!
05
06
#447500
1!
15
16
#448000
0!
05
06
#448500
1!
15
16
#449000
0!
05
06
#449500
1!
15
16
#450000
0!
05
06
#450500
1!
15
16
#451000
0!
05
06
#451500
1!
15
16
#452000
0!
05
06
#452500
1!
15
16
#453000
0!
05
06
#453500
1!
15
16
#454000
0!
05
06
#454500
1!
15
16
#455000
0!
05
06
#455500
1!
15
16
#456000
0!
05
06
#456500
1!
15
16
#457000
0!
05
06
#457500
1!
15
16
#458000
0!
05
06
#458500
1!
15
16
#459000
0!
05
06
#459500
1!
15
16
#460000
0!
05
06
#460500
1!
15
16
#461000
0!
05
06
#461500
1!
15
16
#462000
0!
05
06
#462500
1!
15
16
#463000
0!
05
06
#463500
1!
15
16
#464000
0!
05
06
#464500
1!
15
16
#465000
0!
05
06
#465500
1!
15
16
#466000
0!
05
06
#466500
1!
15
16
#467000
0!
05
06
#467500
1!
15
16
#468000
0!
05
06
#468500
1!
15
16
#469000
0!
05
06
#469500
1!
15
16
#470000
0!
05
06
#470500
1!
15
16
#471000
0!
05
06
#471500
1!
15
16
#472000
0!
05
06
#472500
1!
15
16
#473000
0!
05
06
#473500
1!
15
16
#474000
0!
05
06
#474500
1!
15
16
#475000
0!
05
06
#475500
1!
15
16
#476000
0!
05
06
#476500
1!
15
16
#477000
0!
05
06
#477500
1!
15
16
#478000
0!
05
06
#478500
1!
15
16
#479000
0!
05
06
#479500
1!
15
16
#480000
0!
05
06
#480500
1!
15
16
#481000
0!
05
06
#481500
1!
15
16
#482000
0!
05
06
#482500
1!
15
16
#483000
0!
05
06
#483500
1!
15
16
#484000
0!
05
06
#484500
1!
15
16
#485000
0!
05
06
#485500
1!
15
16
#486000
0!
05
06
#486500
1!
15
16
#487000
0!
05
06
#487500
1!
15
16
#488000
0!
05
06
#488500
1!
15
16
#489000
0!
05
06
#489500
1!
15
16
#490000
0!
05
06
#490500
1!
15
16
#491000
0!
05
06
#491500
1!
15
16
#492000
0!
05
06
#492500
1!
15
16
#493000
0!
05
06
#493500
1!
15
16
#494000
0!
05
06
#494500
1!
15
16
#495000
0!
05
06
#495500
1!
15
16
#496000
0!
05
06
#496500
1!
15
16
#497000
0!
05
06
#497500
1!
15
16
#498000
0!
05
06
#498500
1!
15
16
#499000
0!
05
06
#499500
1!
15
16
#500000
0!
05
06
#500500
1!
15
16
#501000
0!
05
06
#501500
1!
15
16
#502000
0!
05
06
#502500
1!
15
16
#503000
0!
05
06
#503500
1!
15
16
#504000
0!
05
06
#504500
1!
15
16
#505000
0!
05
06
#505500
1!
15
16
#506000
0!
05
06
#506500
1!
15
16
#507000
0!
05
06
#507500
1!
15
16
#508000
0!
05
06
#508500
1!
15
16
#509000
0!
05
06
#509500
1!
15
16
#510000
0!
05
06
#510500
1!
15
16
#511000
0!
05
06
#511500
1!
15
16
#512000
0!
05
06
#512500
1!
15
16
#513000
0!
05
06
#513500
1!
15
16
#514000
0!
05
06
#514500
1!
15
16
#515000
0!
05
06
#515500
1!
15
16
#516000
0!
05
06
#516500
1!
15
16
#517000
0!
05
06
#517500
1!
15
16
#518000
0!
05
06
#518500
1!
15
16
#519000
0!
05
06
#519500
1!
15
16
#520000
0!
05
06
#520500
1!
15
16
#521000
0!
05
06
#521500
1!
15
16
#522000
0!
05
06
#522500
1!
15
16
#523000
0!
05
06
#523500
1!
15
16
#524000
0!
05
06
#524500
1!
15
16
#525000
0!
05
06
#525500
1!
15
16
#526000
0!
05
06
#526500
1!
15
16
#527000
0!
05
06
#527500
1!
15
16
#528000
0!
05
06
#528500
1!
15
16
#529000
0!
05
06
#529500
1!
15
16
#530000
0!
05
06
#530500
1!
15
16
#531000
0!
05
06
#531500
1!
15
16
#532000
0!
05
06
#532500
1!
15
16
#533000
0!
05
06
#533500
1!
15
16
#534000
0!
05
06
#534500
1!
15
16
#535000
0!
05
06
#535500
1!
15
16
#536000
0!
05
06
#536500
1!
15
16
#537000
0!
05
06
#537500
1!
15
16
#538000
0!
05
06
#538500
1!
15
16
#539000
0!
05
06
#539500
1!
15
16
#540000
0!
05
06
#540500
1!
15
16
#541000
0!
05
06
#541500
1!
15
16
#542000
0!
05
06
#542500
1!
15
16
#543000
0!
05
06
#543500
1!
15
16
#544000
0!
05
06
#544500
1!
15
16
#545000
0!
05
06
#545500
1!
15
16
#546000
0!
05
06
#546500
1!
15
16
#547000
0!
05
06
#547500
1!
15
16
#548000
0!
05
06
#548500
1!
15
16
#549000
0!
05
06
#549500
1!
15
16
#550000
0!
05
06
#550500
1!
15
16
#551000
0!
05
06
#551500
1!
15
16
#552000
0!
05
06
#552500
1!
15
16
#553000
0!
05
06
#553500
1!
15
16
#554000
0!
05
06
#554500
1!
15
16
#555000
0!
05
06
#555500
1!
15
16
#556000
0!
05
06
#556500
1!
15
16
#557000
0!
05
06
#557500
1!
15
16
#558000
0!
05
06
#558500
1!
15
16
#559000
0!
05
06
#559500
1!
15
16
#560000
0!
05
06
#560500
1!
15
16
#561000
0!
05
06
#561500
1!
15
16
#562000
0!
05
06
#562500
1!
15
16
#563000
0!
05
06
#563500
1!
15
16
#564000
0!
05
06
#564500
1!
15
16
#565000
0!
05
06
#565500
1!
15
16
#566000
0!
05
06
#566500
1!
15
16
#567000
0!
05
06
#567500
1!
15
16
#568000
0!
05
06
#568500
1!
15
16
#569000
0!
05
06
#569500
1!
15
16
#570000
0!
05
06
#570500
1!
15
16
#571000
0!
05
06
#571500
1!
15
16
#572000
0!
05
06
#572500
1!
15
16
#573000
0!
05
06
#573500
1!
15
16
#574000
0!
05
06
#574500
1!
15
16
#575000
0!
05
06
#575500
1!
15
16
#576000
0!
05
06
#576500
1!
15
16
#577000
0!
05
06
#577500
1!
15
16
#578000
0!
05
06
#578500
1!
15
16
#579000
0!
05
06
#579500
1!
15
16
#580000
0!
05
06
#580500
1!
15
16
#581000
0!
05
06
#581500
1!
15
16
#582000
0!
05
06
#582500
1!
15
16
#583000
0!
05
06
#583500
1!
15
16
#584000
0!
05
06
#584500
1!
15
16
#585000
0!
05
06
#585500
1!
15
16
#586000
0!
05
06
#586500
1!
15
16
#587000
0!
05
06
#587500
1!
15
16
#588000
0!
05
06
#588500
1!
15
16
#589000
0!
05
06
#589500
1!
15
16
#590000
0!
05
06
#590500
1!
15
16
#591000
0!
05
06
#591500
1!
15
16
#592000
0!
05
06
#592500
1!
15
16
#593000
0!
05
06
#593500
1!
15
16
#594000
0!
05
06
#594500
1!
15
16
#595000
0!
05
06
#595500
1!
15
16
#596000
0!
05
06
#596500
1!
15
16
#597000
0!
05
06
#597500
1!
15
16
#598000
0!
05
06
#598500
1!
15
16
#599000
0!
05
06
#599500
1!
15
16
