semester 2/LogicCircuitDesignAndExperimentation/FPGAKeypadBinaryShiftRegisterLED/simulation/qsim/FPGAKeypadBinaryShiftRegisterLED.msim.vcd
$comment
	File created using the following command:
		vcd file FPGAKeypadBinaryShiftRegisterLED.msim.vcd -direction
$end
$date
	Mon Oct 14 22:08:36 2024
$end
$version
	ModelSim Version 2020.1
$end
$timescale
	1ps
$end

$scope module FPGAKeypadBinaryShiftRegisterLED_vlg_vec_tst $end
$var reg 1 ! CLK $end
$var reg 12 " Keypad [11:0] $end
$var reg 1 # RST $end
$var wire 1 $ LED1 [3] $end
$var wire 1 % LED1 [2] $end
$var wire 1 & LED1 [1] $end
$var wire 1 ' LED1 [0] $end
$var wire 1 ( LED2 [3] $end
$var wire 1 ) LED2 [2] $end
$var wire 1 * LED2 [1] $end
$var wire 1 + LED2 [0] $end

$scope module i1 $end
$var wire 1 , gnd $end
$var wire 1 - vcc $end
$var wire 1 . unknown $end
$var tri1 1 / devclrn $end
$var tri1 1 0 devpor $end
$var tri1 1 1 devoe $end
$var wire 1 2 Keypad[11]~input_o $end
$var wire 1 3 Keypad[10]~input_o $end
$var wire 1 4 ~QUARTUS_CREATED_GND~I_combout $end
$var wire 1 5 CLK~input_o $end
$var wire 1 6 CLK~inputCLKENA0_outclk $end
$var wire 1 7 Keypad[6]~input_o $end
$var wire 1 8 RST~input_o $end
$var wire 1 9 inst|inst17|inst~q $end
$var wire 1 : inst|inst17|inst1~q $end
$var wire 1 ; Keypad[4]~input_o $end
$var wire 1 < inst|inst14|inst~q $end
$var wire 1 = inst|inst14|inst1~q $end
$var wire 1 > inst|inst12121~0_combout $end
$var wire 1 ? Keypad[0]~input_o $end
$var wire 1 @ inst|inst|inst~q $end
$var wire 1 A inst|inst|inst1~q $end
$var wire 1 B Keypad[2]~input_o $end
$var wire 1 C inst|inst8|inst~q $end
$var wire 1 D inst|inst8|inst1~q $end
$var wire 1 E Keypad[8]~input_o $end
$var wire 1 F inst|inst19|inst~feeder_combout $end
$var wire 1 G inst|inst19|inst~q $end
$var wire 1 H inst|inst19|inst1~q $end
$var wire 1 I inst|inst12121~2_combout $end
$var wire 1 J Keypad[1]~input_o $end
$var wire 1 K inst|inst2|inst~q $end
$var wire 1 L inst|inst2|inst1~q $end
$var wire 1 M inst|inst2|inst3~0_combout $end
$var wire 1 N Keypad[7]~input_o $end
$var wire 1 O inst|inst18|inst~feeder_combout $end
$var wire 1 P inst|inst18|inst~q $end
$var wire 1 Q inst|inst18|inst1~feeder_combout $end
$var wire 1 R inst|inst18|inst1~q $end
$var wire 1 S Keypad[5]~input_o $end
$var wire 1 T inst|inst15|inst~feeder_combout $end
$var wire 1 U inst|inst15|inst~q $end
$var wire 1 V inst|inst15|inst1~q $end
$var wire 1 W inst|inst6~0_combout $end
$var wire 1 X Keypad[3]~input_o $end
$var wire 1 Y inst|inst11|inst~q $end
$var wire 1 Z inst|inst11|inst1~q $end
$var wire 1 [ Keypad[9]~input_o $end
$var wire 1 \ inst|inst20|inst~q $end
$var wire 1 ] inst|inst20|inst1~q $end
$var wire 1 ^ inst|inst12121~1_combout $end
$var wire 1 _ inst1|inst|inst~combout $end
$var wire 1 ` inst|inst7~0_combout $end
$var wire 1 a inst1|inst|inst9~DUPLICATE_q $end
$var wire 1 b inst|inst6~1_combout $end
$var wire 1 c inst1|inst|inst8~q $end
$var wire 1 d inst|inst5~0_combout $end
$var wire 1 e inst|inst5~1_combout $end
$var wire 1 f inst1|inst|inst7~q $end
$var wire 1 g inst|inst4~0_combout $end
$var wire 1 h inst1|inst|inst6~q $end
$var wire 1 i inst1|inst5|inst~combout $end
$var wire 1 j inst1|inst|inst9~q $end
$var wire 1 k inst1|inst5|inst9~q $end
$var wire 1 l inst1|inst5|inst8~q $end
$var wire 1 m inst1|inst5|inst7~feeder_combout $end
$var wire 1 n inst1|inst5|inst7~q $end
$var wire 1 o inst1|inst5|inst6~feeder_combout $end
$var wire 1 p inst1|inst5|inst6~q $end
$upscope $end
$upscope $end
$enddefinitions $end
#0
$dumpvars
0!
b0 "
1#
0'
0&
0%
0$
0+
0*
0)
0(
0,
1-
x.
1/
10
11
02
03
04
05
06
07
18
09
0:
0;
0<
0=
0>
0?
0@
0A
0B
0C
0D
0E
0F
0G
0H
1I
0J
0K
0L
0M
0N
0O
0P
0Q
0R
0S
0T
0U
0V
0W
0X
0Y
0Z
0[
0\
0]
0^
0_
0`
0a
0b
0c
1d
0e
0f
0g
0h
0i
0j
0k
0l
0m
0n
0o
0p
$end
#5000
1!
15
16
#10000
0!
05
06
#15000
1!
15
16
#20000
b1 "
0!
1?
05
06
#25000
1!
15
16
1@
0I
1i
1_
#30000
0!
05
06
0i
0_
#35000
1!
15
16
1i
1_
1A
1I
0i
0_
#40000
0!
05
06
#45000
1!
15
16
#50000
0!
05
06
#55000
1!
15
16
#60000
b101 "
b100 "
0!
0?
1B
05
06
#65000
1!
15
16
1C
0@
0I
0d
1e
1i
1_
1f
1&
1m
#70000
0!
05
06
0i
0_
#75000
1!
15
16
1i
1_
1D
0A
1n
1*
1I
1d
0e
0i
0_
#80000
0!
05
06
#85000
1!
15
16
#90000
0!
05
06
#95000
1!
15
16
#100000
b0 "
0!
0B
05
06
#105000
1!
15
16
0C
#110000
b10000 "
0!
1;
05
06
#115000
1!
15
16
0D
1<
1>
1i
1b
1_
0f
1c
1%
0&
0m
#120000
0!
05
06
0i
0_
#125000
1!
15
16
1i
1_
1=
0n
1l
1)
0*
0>
0i
0b
0_
#130000
0!
05
06
#135000
1!
15
16
#140000
0!
05
06
#145000
1!
15
16
#150000
b1010000 "
b1000000 "
0!
0;
17
05
06
#155000
1!
15
16
0<
19
0d
1>
1i
1b
1_
1e
#160000
0!
05
06
0i
0_
#165000
1!
15
16
1i
1_
0=
1:
1f
1&
1d
0>
1m
0i
0b
0_
0e
#170000
0!
05
06
#175000
1!
15
16
#180000
0!
05
06
#185000
1!
15
16
#190000
b0 "
0!
07
05
06
#195000
1!
15
16
09
#200000
0!
05
06
#205000
1!
15
16
0:
#210000
0!
05
06
#215000
1!
15
16
#220000
0!
05
06
#225000
1!
15
16
#230000
0!
05
06
#235000
1!
15
16
#240000
0!
05
06
#245000
1!
15
16
#250000
0!
05
06
#255000
1!
15
16
#260000
0!
05
06
#265000
1!
15
16
#270000
0!
05
06
#275000
1!
15
16
#280000
0!
05
06
#285000
1!
15
16
#290000
0!
05
06
#295000
1!
15
16
#300000
0!
05
06
#305000
1!
15
16
#310000
0!
05
06
#315000
1!
15
16
#320000
0!
05
06
#325000
1!
15
16
#330000
0!
05
06
#335000
1!
15
16
#340000
0!
05
06
#345000
1!
15
16
#350000
0!
05
06
#355000
1!
15
16
#360000
0!
05
06
#365000
1!
15
16
#370000
0!
05
06
#375000
1!
15
16
#380000
0!
05
06
#385000
1!
15
16
#390000
0!
05
06
#395000
1!
15
16
#400000
0!
05
06
#405000
1!
15
16
#410000
0!
05
06
#415000
1!
15
16
#420000
0!
05
06
#425000
1!
15
16
#430000
0!
05
06
#435000
1!
15
16
#440000
0!
05
06
#445000
1!
15
16
#450000
0!
05
06
#455000
1!
15
16
#460000
0!
05
06
#465000
1!
15
16
#470000
0!
05
06
#475000
1!
15
16
#480000
0!
05
06
#485000
1!
15
16
#490000
0!
05
06
#495000
1!
15
16
#500000
0!
05
06
#505000
1!
15
16
#510000
0!
05
06
#515000
1!
15
16
#520000
0!
05
06
#525000
1!
15
16
#530000
0!
05
06
#535000
1!
15
16
#540000
0!
05
06
#545000
1!
15
16
#550000
0!
05
06
#555000
1!
15
16
#560000
0!
05
06
#565000
1!
15
16
#570000
0!
05
06
#575000
1!
15
16
#580000
0!
05
06
#585000
1!
15
16
#590000
0!
05
06
#595000
1!
15
16
#600000
0!
05
06
#605000
1!
15
16
#610000
0!
05
06
#615000
1!
15
16
#620000
0!
05
06
#625000
1!
15
16
#630000
0!
05
06
#635000
1!
15
16
#640000
0!
05
06
#645000
1!
15
16
#650000
0!
05
06
#655000
1!
15
16
#660000
0!
05
06
#665000
1!
15
16
#670000
0!
05
06
#675000
1!
15
16
#680000
0!
05
06
#685000
1!
15
16
#690000
0!
05
06
#695000
1!
15
16
#700000
0!
05
06
#705000
1!
15
16
#710000
0!
05
06
#715000
1!
15
16
#720000
0!
05
06
#725000
1!
15
16
#730000
0!
05
06
#735000
1!
15
16
#740000
0!
05
06
#745000
1!
15
16
#750000
0!
05
06
#755000
1!
15
16
#760000
0!
05
06
#765000
1!
15
16
#770000
0!
05
06
#775000
1!
15
16
#780000
0!
05
06
#785000
1!
15
16
#790000
0!
05
06
#795000
1!
15
16
#800000
0!
05
06
#805000
1!
15
16
#810000
0!
05
06
#815000
1!
15
16
#820000
0!
05
06
#825000
1!
15
16
#830000
0!
05
06
#835000
1!
15
16
#840000
0!
05
06
#845000
1!
15
16
#850000
0!
05
06
#855000
1!
15
16
#860000
0!
05
06
#865000
1!
15
16
#870000
0!
05
06
#875000
1!
15
16
#880000
0!
05
06
#885000
1!
15
16
#890000
0!
05
06
#895000
1!
15
16
#900000
0!
05
06
#905000
1!
15
16
#910000
0!
05
06
#915000
1!
15
16
#920000
0!
05
06
#925000
1!
15
16
#930000
0!
05
06
#935000
1!
15
16
#940000
0!
05
06
#945000
1!
15
16
#950000
0!
05
06
#955000
1!
15
16
#960000
0!
05
06
#965000
1!
15
16
#970000
0!
05
06
#975000
1!
15
16
#980000
0!
05
06
#985000
1!
15
16
#990000
0!
05
06
#995000
1!
15
16
