semester 2/LogicCircuitDesignAndExperimentation/FDRE/simulation/qsim/FDRE.msim.vcd
$comment
	File created using the following command:
		vcd file FDRE.msim.vcd -direction
$end
$date
	Fri Sep 27 06:35:36 2024
$end
$version
	ModelSim Version 2020.1
$end
$timescale
	1ps
$end

$scope module FDRE_vlg_vec_tst $end
$var reg 1 ! Ce $end
$var reg 1 " CLK $end
$var reg 1 # Din $end
$var reg 1 $ RST $end
$var wire 1 % Qout $end

$scope module i1 $end
$var wire 1 & gnd $end
$var wire 1 ' vcc $end
$var wire 1 ( unknown $end
$var tri1 1 ) devclrn $end
$var tri1 1 * devpor $end
$var tri1 1 + devoe $end
$var wire 1 , ~QUARTUS_CREATED_GND~I_combout $end
$var wire 1 - CLK~input_o $end
$var wire 1 . Din~input_o $end
$var wire 1 / Ce~input_o $end
$var wire 1 0 inst~0_combout $end
$var wire 1 1 inst~feeder_combout $end
$var wire 1 2 RST~input_o $end
$var wire 1 3 inst~q $end
$upscope $end
$upscope $end
$enddefinitions $end
#0
$dumpvars
0!
0"
0#
0$
0%
0&
1'
x(
1)
1*
1+
0,
0-
0.
0/
00
01
02
03
$end
#10000
1"
1$
12
1-
#20000
0"
0-
#30000
0$
1"
02
1-
#40000
0"
0-
#50000
1$
1"
12
1-
#60000
1#
0"
1.
0-
#70000
1!
1"
1/
1-
10
11
#80000
0"
0-
#90000
1"
1-
13
1%
#100000
0!
0"
0/
0-
#110000
0#
1"
0.
1-
#120000
0"
0-
#130000
1"
1-
#140000
1!
0"
1/
0-
00
01
#150000
1"
1-
03
0%
#160000
0"
0-
#170000
0!
1"
0/
1-
#180000
0"
0-
#190000
1"
1-
#200000
0"
0-
#210000
1"
1-
#220000
0"
0-
#230000
1"
1-
#240000
0"
0-
#250000
1"
1-
#260000
1#
1!
0"
1.
1/
0-
10
11
#270000
1"
1-
13
1%
#280000
0!
0"
0/
0-
#290000
1"
1-
#300000
0"
0-
#310000
1"
1-
#320000
0#
0"
0.
0-
#330000
1"
1-
#340000
0$
0"
02
0-
03
0%
00
01
#350000
1"
1-
#360000
0"
0-
#370000
1"
1-
#380000
0"
0-
#390000
1"
1-
#400000
0"
0-
#410000
1"
1-
#420000
0"
0-
#430000
1"
1-
#440000
0"
0-
#450000
1"
1-
#460000
0"
0-
#470000
1"
1-
#480000
0"
0-
#490000
1"
1-
#500000
0"
0-
#510000
1"
1-
#520000
0"
0-
#530000
1"
1-
#540000
0"
0-
#550000
1"
1-
#560000
0"
0-
#570000
1"
1-
#580000
0"
0-
#590000
1"
1-
#600000
0"
0-
#610000
1"
1-
#620000
0"
0-
#630000
1"
1-
#640000
0"
0-
#650000
1"
1-
#660000
0"
0-
#670000
1"
1-
#680000
0"
0-
#690000
1"
1-
#700000
0"
0-
#710000
1"
1-
#720000
0"
0-
#730000
1"
1-
#740000
0"
0-
#750000
1"
1-
#760000
0"
0-
#770000
1"
1-
#780000
0"
0-
#790000
1"
1-
#800000
0"
0-
#810000
1"
1-
#820000
0"
0-
#830000
1"
1-
#840000
0"
0-
#850000
1"
1-
#860000
0"
0-
#870000
1"
1-
#880000
0"
0-
#890000
1"
1-
#900000
0"
0-
#910000
1"
1-
#920000
0"
0-
#930000
1"
1-
#940000
0"
0-
#950000
1"
1-
#960000
0"
0-
#970000
1"
1-
#980000
0"
0-
#990000
1"
1-
