semester 2/LogicCircuitDesignAndExperimentation/HundredCounter/simulation/qsim/HundredCounter.msim.vcd
$comment
	File created using the following command:
		vcd file HundredCounter.msim.vcd -direction
$end
$date
	Mon Sep 30 18:50:43 2024
$end
$version
	ModelSim Version 2020.1
$end
$timescale
	1ps
$end

$scope module HundredCounter_vlg_vec_tst $end
$var reg 1 ! CLK $end
$var reg 1 " RST $end
$var wire 1 # CNT100 $end
$var wire 1 $ CNT101 $end
$var wire 1 % CNT102 $end
$var wire 1 & CNT103 $end
$var wire 1 ' CNT1000 $end
$var wire 1 ( CNT1001 $end
$var wire 1 ) CNT1002 $end
$var wire 1 * CNT1003 $end

$scope module i1 $end
$var wire 1 + gnd $end
$var wire 1 , vcc $end
$var wire 1 - unknown $end
$var tri1 1 . devclrn $end
$var tri1 1 / devpor $end
$var tri1 1 0 devoe $end
$var wire 1 1 ~QUARTUS_CREATED_GND~I_combout $end
$var wire 1 2 CLK~input_o $end
$var wire 1 3 CLK~inputCLKENA0_outclk $end
$var wire 1 4 inst|inst3~0_combout $end
$var wire 1 5 RST~input_o $end
$var wire 1 6 inst|inst3~q $end
$var wire 1 7 inst|inst19~combout $end
$var wire 1 8 inst|inst2~q $end
$var wire 1 9 inst|inst1~0_combout $end
$var wire 1 : inst|inst1~q $end
$var wire 1 ; inst|inst7~combout $end
$var wire 1 < inst|inst~q $end
$var wire 1 = inst2~combout $end
$var wire 1 > inst1|inst~q $end
$var wire 1 ? inst1|inst3~q $end
$var wire 1 @ inst1|inst3~0_combout $end
$var wire 1 A inst1|inst3~feeder_combout $end
$var wire 1 B inst1|inst3~DUPLICATE_q $end
$var wire 1 C inst1|inst19~combout $end
$var wire 1 D inst1|inst2~feeder_combout $end
$var wire 1 E inst1|inst2~DUPLICATE_q $end
$var wire 1 F inst1|inst1~q $end
$var wire 1 G inst1|inst1~0_combout $end
$var wire 1 H inst1|inst1~DUPLICATE_q $end
$var wire 1 I inst1|inst7~combout $end
$var wire 1 J inst1|inst~feeder_combout $end
$var wire 1 K inst1|inst~DUPLICATE_q $end
$var wire 1 L inst1|inst2~q $end
$upscope $end
$upscope $end
$enddefinitions $end
#0
$dumpvars
1!
1"
0#
0$
0%
0&
0'
0(
0)
0*
0+
1,
x-
1.
1/
10
01
12
13
14
15
06
07
08
09
0:
0;
0<
0=
0>
0?
1@
1A
0B
0C
0D
0E
0F
0G
0H
0I
0J
0K
0L
$end
#10000
0!
02
03
#20000
1!
12
13
16
1#
17
04
#30000
0!
02
03
#40000
1!
12
13
18
06
0#
1$
14
#50000
0!
02
03
#60000
1!
12
13
16
1#
19
07
04
#70000
0!
02
03
#80000
1!
12
13
1:
08
06
0#
0$
1%
14
#90000
0!
02
03
#100000
1!
12
13
16
1#
17
04
#110000
0!
02
03
#120000
1!
12
13
18
06
0#
1$
14
#130000
0!
02
03
#140000
1!
12
13
16
1#
1;
09
07
04
#150000
0!
02
03
#160000
1!
12
13
1<
0:
08
06
0#
0$
0%
1&
14
#170000
0!
02
03
#180000
1!
12
13
16
1#
0;
1=
04
1?
1B
1'
0@
1C
1D
0A
#190000
0!
02
03
#200000
1!
12
13
0<
06
0#
0&
0=
14
#210000
0!
02
03
#220000
1!
12
13
16
1#
17
04
#230000
0!
02
03
#240000
1!
12
13
18
06
0#
1$
14
#250000
0!
02
03
#260000
1!
12
13
16
1#
19
07
04
#270000
0!
02
03
#280000
1!
12
13
1:
08
06
0#
0$
1%
14
#290000
0!
02
03
#300000
1!
12
13
16
1#
17
04
#310000
0!
02
03
#320000
1!
12
13
18
06
0#
1$
14
#330000
0!
02
03
#340000
1!
12
13
16
1#
1;
09
07
04
#350000
0!
02
03
#360000
1!
12
13
1<
0:
08
06
0#
0$
0%
1&
14
#370000
0!
02
03
#380000
1!
12
13
16
1#
0;
1=
04
1E
0?
1L
0B
0'
1(
1@
1A
#390000
0!
02
03
#400000
1!
12
13
0<
06
0#
0&
0=
14
#410000
0!
02
03
#420000
1!
12
13
16
1#
17
04
#430000
0!
02
03
#440000
1!
12
13
18
06
0#
1$
14
#450000
0!
02
03
#460000
1!
12
13
16
1#
19
07
04
#470000
0!
02
03
#480000
1!
12
13
1:
08
06
0#
0$
1%
14
#490000
0!
02
03
#500000
1!
12
13
16
1#
17
04
#510000
0!
02
03
#520000
1!
12
13
18
06
0#
1$
14
#530000
0!
02
03
#540000
1!
12
13
16
1#
1;
09
07
04
#550000
0!
02
03
#560000
1!
12
13
1<
0:
08
06
0#
0$
0%
1&
14
#570000
0!
02
03
#580000
1!
12
13
16
1#
0;
1=
04
1?
1B
1'
1G
0@
0C
0D
0A
#590000
0!
02
03
#600000
1!
12
13
0<
06
0#
0&
0=
14
#610000
0!
02
03
#620000
1!
12
13
16
1#
17
04
#630000
0!
02
03
#640000
1!
12
13
18
06
0#
1$
14
#650000
0!
02
03
#660000
1!
12
13
16
1#
19
07
04
#670000
0!
02
03
#680000
1!
12
13
1:
08
06
0#
0$
1%
14
#690000
0!
02
03
#700000
1!
12
13
16
1#
17
04
#710000
0!
02
03
#720000
1!
12
13
18
06
0#
1$
14
#730000
0!
02
03
#740000
1!
12
13
16
1#
1;
09
07
04
#750000
0!
02
03
#760000
1!
12
13
1<
0:
08
06
0#
0$
0%
1&
14
#770000
0!
02
03
#780000
1!
12
13
16
1#
0;
1=
04
1F
0E
0?
0L
1H
0B
0'
1)
0(
1@
1A
#790000
0!
02
03
#800000
1!
12
13
0<
06
0#
0&
0=
14
#810000
0!
02
03
#820000
1!
12
13
16
1#
17
04
#830000
0!
02
03
#840000
1!
12
13
18
06
0#
1$
14
#850000
0!
02
03
#860000
1!
12
13
16
1#
19
07
04
#870000
0!
02
03
#880000
1!
12
13
1:
08
06
0#
0$
1%
14
#890000
0!
02
03
#900000
1!
12
13
16
1#
17
04
#910000
0!
02
03
#920000
1!
12
13
18
06
0#
1$
14
#930000
0!
02
03
#940000
1!
12
13
16
1#
1;
09
07
04
#950000
0!
02
03
#960000
1!
12
13
1<
0:
08
06
0#
0$
0%
1&
14
#970000
0!
02
03
#980000
1!
12
13
16
1#
0;
1=
04
1?
1B
1'
0@
1C
1D
0A
#990000
0!
02
03
