semester 2/LogicCircuitDesignAndExperimentation/SyncDFFwithSyncRst/simulation/qsim/SyncDFFwithSyncRst.msim.vcd
$comment
	File created using the following command:
		vcd file SyncDFFwithSyncRst.msim.vcd -direction
$end
$date
	Fri Sep 27 06:31:03 2024
$end
$version
	ModelSim Version 2020.1
$end
$timescale
	1ps
$end

$scope module SyncDFFwithSyncRst_vlg_vec_tst $end
$var reg 1 ! CLK $end
$var reg 1 " Din $end
$var reg 1 # Reset $end
$var wire 1 $ Qout $end

$scope module i1 $end
$var wire 1 % gnd $end
$var wire 1 & vcc $end
$var wire 1 ' unknown $end
$var tri1 1 ( devclrn $end
$var tri1 1 ) devpor $end
$var tri1 1 * devoe $end
$var wire 1 + ~QUARTUS_CREATED_GND~I_combout $end
$var wire 1 , CLK~input_o $end
$var wire 1 - Din~input_o $end
$var wire 1 . Reset~input_o $end
$var wire 1 / inst1~combout $end
$var wire 1 0 inst~q $end
$upscope $end
$upscope $end
$enddefinitions $end
#0
$dumpvars
0!
0"
0#
0$
0%
1&
x'
1(
1)
1*
0+
0,
0-
0.
0/
00
$end
#40000
1#
1.
#100000
1!
1"
1-
1,
1/
#140000
0"
0-
0/
#180000
0!
0,
#240000
1"
1-
1/
#300000
1!
1,
10
1$
#360000
0"
0-
0/
#500000
0!
0,
#540000
0#
0.
#600000
1#
1.
#620000
1"
1!
1-
1,
1/
00
0$
#660000
0"
0-
0/
#840000
0#
0.
#980000
0!
0,
