semester 2/LogicCircuitDesignAndExperimentation/FourBitsRippleCarryAdder/simulation/qsim/FourBitsRippleCarryAdder.msim.vcd
$comment
	File created using the following command:
		vcd file FourBitsRippleCarryAdder.msim.vcd -direction
$end
$date
	Mon Sep 23 18:25:12 2024
$end
$version
	ModelSim Version 2020.1
$end
$timescale
	1ps
$end

$scope module FourBitsRippleCarryAdder_vlg_vec_tst $end
$var reg 1 ! A0 $end
$var reg 1 " A1 $end
$var reg 1 # A2 $end
$var reg 1 $ A3 $end
$var reg 1 % B0 $end
$var reg 1 & B1 $end
$var reg 1 ' B2 $end
$var reg 1 ( B3 $end
$var wire 1 ) C $end
$var wire 1 * S0 $end
$var wire 1 + S1 $end
$var wire 1 , S2 $end
$var wire 1 - S3 $end

$scope module i1 $end
$var wire 1 . gnd $end
$var wire 1 / vcc $end
$var wire 1 0 unknown $end
$var tri1 1 1 devclrn $end
$var tri1 1 2 devpor $end
$var tri1 1 3 devoe $end
$var wire 1 4 ~QUARTUS_CREATED_GND~I_combout $end
$var wire 1 5 B0~input_o $end
$var wire 1 6 A0~input_o $end
$var wire 1 7 inst|inst|inst~combout $end
$var wire 1 8 A1~input_o $end
$var wire 1 9 B1~input_o $end
$var wire 1 : inst1|inst2|inst~combout $end
$var wire 1 ; A2~input_o $end
$var wire 1 < B2~input_o $end
$var wire 1 = inst2|inst2|inst~combout $end
$var wire 1 > B3~input_o $end
$var wire 1 ? A3~input_o $end
$var wire 1 @ inst1|inst3~combout $end
$var wire 1 A inst3|inst2|inst~combout $end
$var wire 1 B inst3|inst3~combout $end
$upscope $end
$upscope $end
$enddefinitions $end
#0
$dumpvars
0!
0"
0#
0$
0%
0&
0'
0(
0)
0*
0+
0,
0-
0.
1/
x0
11
12
13
04
05
06
07
08
09
0:
0;
0<
0=
0>
0?
0@
0A
0B
$end
#10000
1(
1>
1A
1-
#20000
1'
0(
1<
0>
0A
1=
1,
0-
#30000
1(
1>
1A
1-
#40000
1&
0'
0(
19
0<
0>
0A
0=
1:
1+
0,
0-
#50000
1(
1>
1A
1-
#60000
1'
0(
1<
0>
0A
1=
1,
0-
#70000
1(
1>
1A
1-
#80000
1%
0&
0'
0(
15
09
0<
0>
0A
0=
0:
17
1*
0+
0,
0-
#90000
1(
1>
1A
1-
#100000
1'
0(
1<
0>
0A
1=
1,
0-
#110000
1(
1>
1A
1-
#120000
1&
0'
0(
19
0<
0>
0A
0=
1:
1+
0,
0-
#130000
1(
1>
1A
1-
#140000
1'
0(
1<
0>
0A
1=
1,
0-
#150000
1(
1>
1A
1-
#160000
1$
0%
0&
0'
0(
1?
05
09
0<
0>
0=
0:
07
0*
0+
0,
#170000
1(
1>
1B
0A
0-
1)
#180000
1'
0(
1<
0>
0B
1A
1=
1,
1-
0)
#190000
1(
1>
1B
0A
0-
1)
#200000
1&
0'
0(
19
0<
0>
0B
1A
0=
1:
1+
0,
1-
0)
#210000
1(
1>
1B
0A
0-
1)
#220000
1'
0(
1<
0>
0B
1A
1=
1,
1-
0)
#230000
1(
1>
1B
0A
0-
1)
#240000
1%
0&
0'
0(
15
09
0<
0>
0B
1A
0=
0:
17
1*
0+
0,
1-
0)
#250000
1(
1>
1B
0A
0-
1)
#260000
1'
0(
1<
0>
0B
1A
1=
1,
1-
0)
#270000
1(
1>
1B
0A
0-
1)
#280000
1&
0'
0(
19
0<
0>
0B
1A
0=
1:
1+
0,
1-
0)
#290000
1(
1>
1B
0A
0-
1)
#300000
1'
0(
1<
0>
0B
1A
1=
1,
1-
0)
#310000
1(
1>
1B
0A
0-
1)
#320000
1#
0$
0%
0&
0'
0(
1;
0?
05
09
0<
0>
0B
0:
07
0*
0+
0)
#330000
1(
1>
1A
1-
#340000
1'
0(
1<
0>
0=
0,
#350000
1(
1>
1B
0A
0-
1)
#360000
1&
0'
0(
19
0<
0>
0B
1=
1:
1+
1,
0)
#370000
1(
1>
1A
1-
#380000
1'
0(
1<
0>
0=
0,
#390000
1(
1>
1B
0A
0-
1)
#400000
1%
0&
0'
0(
15
09
0<
0>
0B
1=
0:
17
1*
0+
1,
0)
#410000
1(
1>
1A
1-
#420000
1'
0(
1<
0>
0=
0,
#430000
1(
1>
1B
0A
0-
1)
#440000
1&
0'
0(
19
0<
0>
0B
1=
1:
1+
1,
0)
#450000
1(
1>
1A
1-
#460000
1'
0(
1<
0>
0=
0,
#470000
1(
1>
1B
0A
0-
1)
#480000
1$
0%
0&
0'
0(
1?
05
09
0<
0>
0B
1A
1=
0:
07
0*
0+
1,
1-
0)
#490000
1(
1>
1B
0A
0-
1)
#500000
1'
0(
1<
0>
0=
0,
#510000
1(
1>
1A
1-
#520000
1&
0'
0(
19
0<
0>
0B
1=
1:
1+
1,
0)
#530000
1(
1>
1B
0A
0-
1)
#540000
1'
0(
1<
0>
0=
0,
#550000
1(
1>
1A
1-
#560000
1%
0&
0'
0(
15
09
0<
0>
0B
1=
0:
17
1*
0+
1,
0)
#570000
1(
1>
1B
0A
0-
1)
#580000
1'
0(
1<
0>
0=
0,
#590000
1(
1>
1A
1-
#600000
1&
0'
0(
19
0<
0>
0B
1=
1:
1+
1,
0)
#610000
1(
1>
1B
0A
0-
1)
#620000
1'
0(
1<
0>
0=
0,
#630000
1(
1>
1A
1-
#640000
1"
0#
0$
0%
0&
0'
0(
18
0;
0?
05
09
0<
0>
0B
0A
07
0*
0-
0)
#650000
1(
1>
1A
1-
#660000
1'
0(
1<
0>
0A
1=
1,
0-
#670000
1(
1>
1A
1-
#680000
1&
0'
0(
19
0<
0>
1@
0A
0:
0+
0-
#690000
1(
1>
1A
1-
#700000
1'
0(
1<
0>
0=
0,
#710000
1(
1>
1B
0A
0-
1)
#720000
1%
0&
0'
0(
15
09
0<
0>
0@
0B
1:
17
1*
1+
0)
#730000
1(
1>
1A
1-
#740000
1'
0(
1<
0>
0A
1=
1,
0-
#750000
1(
1>
1A
1-
#760000
1&
0'
0(
19
0<
0>
1@
0A
0:
0+
0-
#770000
1(
1>
1A
1-
#780000
1'
0(
1<
0>
0=
0,
#790000
1(
1>
1B
0A
0-
1)
#800000
1$
0%
0&
0'
0(
1?
05
09
0<
0>
0@
0B
1A
1:
07
0*
1+
1-
0)
#810000
1(
1>
1B
0A
0-
1)
#820000
1'
0(
1<
0>
0B
1A
1=
1,
1-
0)
#830000
1(
1>
1B
0A
0-
1)
#840000
1&
0'
0(
19
0<
0>
1@
0B
1A
0:
0+
1-
0)
#850000
1(
1>
1B
0A
0-
1)
#860000
1'
0(
1<
0>
0=
0,
#870000
1(
1>
1A
1-
#880000
1%
0&
0'
0(
15
09
0<
0>
0@
0B
1:
17
1*
1+
0)
#890000
1(
1>
1B
0A
0-
1)
#900000
1'
0(
1<
0>
0B
1A
1=
1,
1-
0)
#910000
1(
1>
1B
0A
0-
1)
#920000
1&
0'
0(
19
0<
0>
1@
0B
1A
0:
0+
1-
0)
#930000
1(
1>
1B
0A
0-
1)
#940000
1'
0(
1<
0>
0=
0,
#950000
1(
1>
1A
1-
#960000
1#
0$
0%
0&
0'
0(
1;
0?
05
09
0<
0>
0@
0B
1=
1:
07
0*
1+
1,
0)
0A
0-
#970000
1(
1>
1A
1-
#980000
1'
0(
1<
0>
0=
0,
#990000
1(
1>
1B
0A
0-
1)
