semester 2/LogicCircuitDesignAndExperimentation/Adder/simulation/qsim/Adder.msim.vcd
$comment
	File created using the following command:
		vcd file Adder.msim.vcd -direction
$end
$date
	Wed Sep 25 22:00:24 2024
$end
$version
	ModelSim Version 2020.1
$end
$timescale
	1ps
$end

$scope module Adder_vlg_vec_tst $end
$var reg 12 ! A [11:0] $end
$var reg 12 " B [11:0] $end
$var wire 1 # Sum [4] $end
$var wire 1 $ Sum [3] $end
$var wire 1 % Sum [2] $end
$var wire 1 & Sum [1] $end
$var wire 1 ' Sum [0] $end

$scope module i1 $end
$var wire 1 ( gnd $end
$var wire 1 ) vcc $end
$var wire 1 * unknown $end
$var tri1 1 + devclrn $end
$var tri1 1 , devpor $end
$var tri1 1 - devoe $end
$var wire 1 . A[0]~input_o $end
$var wire 1 / B[0]~input_o $end
$var wire 1 0 ~QUARTUS_CREATED_GND~I_combout $end
$var wire 1 1 A[8]~input_o $end
$var wire 1 2 A[11]~input_o $end
$var wire 1 3 A[9]~input_o $end
$var wire 1 4 A[10]~input_o $end
$var wire 1 5 inst3|inst6~combout $end
$var wire 1 6 B[5]~input_o $end
$var wire 1 7 B[7]~input_o $end
$var wire 1 8 B[6]~input_o $end
$var wire 1 9 B[4]~input_o $end
$var wire 1 : inst4|inst5~combout $end
$var wire 1 ; A[4]~input_o $end
$var wire 1 < A[6]~input_o $end
$var wire 1 = A[7]~input_o $end
$var wire 1 > A[5]~input_o $end
$var wire 1 ? inst3|inst5~combout $end
$var wire 1 @ B[8]~input_o $end
$var wire 1 A B[11]~input_o $end
$var wire 1 B B[10]~input_o $end
$var wire 1 C B[9]~input_o $end
$var wire 1 D inst4|inst6~combout $end
$var wire 1 E B[2]~input_o $end
$var wire 1 F B[3]~input_o $end
$var wire 1 G inst4|inst4~combout $end
$var wire 1 H A[3]~input_o $end
$var wire 1 I A[1]~input_o $end
$var wire 1 J inst3|inst~combout $end
$var wire 1 K B[1]~input_o $end
$var wire 1 L inst4|inst~combout $end
$var wire 1 M A[2]~input_o $end
$var wire 1 N inst3|inst4~combout $end
$var wire 1 O inst|inst1|inst3~combout $end
$var wire 1 P inst|inst3|inst3~combout $end
$var wire 1 Q inst|inst3|inst2|inst~combout $end
$var wire 1 R inst|inst2|inst2|inst~combout $end
$var wire 1 S inst|inst1|inst2|inst~combout $end
$var wire 1 T inst|inst|inst|inst~combout $end
$upscope $end
$upscope $end
$enddefinitions $end
#0
$dumpvars
b0 !
b0 "
0'
0&
0%
0$
0#
0(
1)
x*
1+
1,
1-
0.
0/
00
01
02
03
04
15
06
07
08
09
1:
0;
0<
0=
0>
1?
0@
0A
0B
0C
1D
0E
0F
1G
0H
0I
1J
0K
1L
0M
1N
0O
0P
0Q
0R
0S
0T
$end
#10000
b100 !
1M
0N
1S
1&
#80000
b1000000000 "
1C
0L
0D
1Q
1T
1'
1$
#140000
b0 !
0M
1N
0S
0&
#150000
b1000000 !
1<
0N
0?
1R
1S
1&
1%
#220000
b0 "
0C
1L
1D
0Q
0T
0'
0$
#230000
b10000 "
19
0:
0R
1Q
1$
0%
#280000
b0 !
0<
1N
1?
1R
0Q
0S
0&
0$
1%
#310000
b10000000000 !
14
0N
05
1Q
1S
1&
1$
#370000
b0 "
09
1:
0R
0%
#420000
b100 "
1E
0G
1O
0S
1R
1%
0&
#470000
b0 !
04
1N
15
0O
0Q
1S
0R
0%
1&
0$
#530000
b0 "
0E
1G
0S
0&
