semester 2/LogicCircuitDesignAndExperimentation/LogicalEquation/simulation/qsim/LogicalEquation.msim.vcd
$comment
	File created using the following command:
		vcd file LogicalEquation.msim.vcd -direction
$end
$date
	Mon Sep 09 18:37:55 2024
$end
$version
	ModelSim Version 2020.1
$end
$timescale
	1ps
$end

$scope module LogicalEquation_vlg_vec_tst $end
$var reg 1 ! A $end
$var reg 1 " B $end
$var reg 1 # C $end
$var reg 1 $ D $end
$var wire 1 % left $end
$var wire 1 & right $end

$scope module i1 $end
$var wire 1 ' gnd $end
$var wire 1 ( vcc $end
$var wire 1 ) unknown $end
$var tri1 1 * devclrn $end
$var tri1 1 + devpor $end
$var tri1 1 , devoe $end
$var wire 1 - ~QUARTUS_CREATED_GND~I_combout $end
$var wire 1 . A~input_o $end
$var wire 1 / C~input_o $end
$var wire 1 0 D~input_o $end
$var wire 1 1 B~input_o $end
$var wire 1 2 inst4~0_combout $end
$upscope $end
$upscope $end
$enddefinitions $end
#0
$dumpvars
0!
0"
0#
1$
0%
0&
0'
1(
x)
1*
1+
1,
0-
0.
0/
10
01
12
$end
#5000
1!
1"
1#
1.
11
1/
02
1&
1%
#10000
0$
0"
00
01
#15000
0#
1$
1"
0/
10
11
#20000
0!
0"
0.
01
12
0&
0%
#25000
1#
1/
#30000
0$
1!
0#
00
1.
0/
02
1&
1%
#35000
0!
1#
0.
1/
12
0&
0%
#40000
1"
11
#45000
1$
1!
10
1.
02
1&
1%
#50000
0$
0!
00
0.
12
0&
0%
#55000
0#
0"
1$
0/
01
10
#60000
1!
1.
02
1&
1%
#65000
1#
0$
0!
1/
00
0.
12
0&
0%
#70000
0#
1$
1!
0/
10
1.
02
1&
1%
#75000
1#
0$
1/
00
#80000
1"
1$
11
10
#85000
0!
0"
0.
01
12
0&
0%
#90000
0$
1!
1"
00
1.
11
02
1&
1%
#95000
0#
0/
#100000
0!
0.
12
0&
0%
#105000
0"
01
#110000
1$
1#
1"
10
1/
11
02
1&
1%
#115000
1!
0#
1.
0/
#120000
0"
01
#125000
0$
00
#130000
0!
1"
0.
11
12
0&
0%
#135000
0"
01
#145000
1$
1!
10
1.
02
1&
1%
#150000
1"
0!
11
0.
12
0&
0%
#155000
1#
0"
1!
1/
01
1.
02
1&
1%
#160000
0$
1"
00
11
#165000
0#
0!
0"
0/
0.
01
12
0&
0%
#170000
1#
1!
1"
1/
1.
11
02
1&
1%
#175000
1$
0#
0!
0"
10
0/
0.
01
12
0&
0%
#180000
0$
1#
1!
00
1/
1.
02
1&
1%
#185000
1"
0#
11
0/
#190000
0!
0.
12
0&
0%
#195000
0"
1!
01
1.
02
1&
1%
#200000
1$
1"
10
11
#205000
1#
0!
1/
0.
#210000
0$
0#
00
0/
12
0&
0%
#215000
1$
1#
10
1/
02
1&
1%
#220000
0"
1!
01
1.
#225000
0#
0!
0/
0.
12
0&
0%
#230000
1#
1/
#235000
0#
0/
#240000
1!
1.
02
1&
1%
#245000
0$
1#
0!
00
1/
0.
12
0&
0%
#250000
1"
1$
0#
1!
11
10
0/
1.
02
1&
1%
#255000
0!
0.
12
0&
0%
#260000
0"
0$
01
00
#265000
1!
1.
02
1&
1%
#270000
1#
1/
#275000
1"
1$
11
10
#280000
0#
0"
0/
01
#285000
1"
11
#290000
1#
1/
#295000
0$
0#
00
0/
#300000
0!
0"
1$
1#
0.
01
10
1/
12
0&
0%
#305000
1"
0#
11
0/
#310000
1!
0$
0"
1.
00
01
02
1&
1%
#315000
1#
0!
1$
1/
0.
10
12
0&
0%
#320000
1!
0$
1.
00
02
1&
1%
#325000
1"
0#
0!
1$
11
0/
0.
10
12
0&
0%
#330000
0"
01
#340000
0$
1"
00
11
#345000
1#
1!
1$
0"
1/
1.
10
01
02
1&
1%
#350000
0$
00
#355000
0!
1"
1$
0.
11
10
#360000
0#
1!
0"
0$
0/
1.
01
00
#365000
1#
1/
#370000
0!
0.
12
0&
0%
#375000
1$
0#
1!
10
0/
1.
02
1&
1%
#380000
1"
0$
0!
11
00
0.
12
0&
0%
#385000
1#
1!
1/
1.
02
1&
1%
#390000
1$
0#
0!
10
0/
0.
12
0&
0%
#395000
0$
1#
1!
00
1/
1.
02
1&
1%
#400000
0"
0#
0!
01
0/
0.
12
0&
0%
#405000
1"
1#
11
1/
#410000
0#
0/
#415000
1!
1.
02
1&
1%
#420000
1$
0"
1#
10
01
1/
#425000
0$
00
#430000
0#
1$
0/
10
#440000
0!
1"
0.
11
12
0&
0%
#445000
1#
0$
1/
00
#450000
1!
1$
1.
10
02
1&
1%
#455000
0!
0$
0.
00
12
0&
0%
#460000
0"
1!
1$
01
1.
10
02
1&
1%
#465000
0#
0!
0$
0/
0.
00
12
0&
0%
#470000
1"
1$
11
10
#475000
1#
1!
0$
1/
1.
00
02
1&
1%
#480000
0"
0!
1$
01
0.
10
12
0&
0%
#495000
0#
1"
1!
0$
0/
11
1.
00
02
1&
1%
#500000
1#
1/
#510000
1$
10
#515000
0$
00
#525000
0#
0/
#530000
0"
0!
1$
1#
01
0.
10
1/
12
0&
0%
#535000
1"
1!
0#
11
1.
0/
02
1&
1%
#540000
0$
1#
00
1/
#545000
0"
0#
01
0/
#550000
0!
1$
1#
0.
10
1/
12
0&
0%
#555000
1"
0#
11
0/
#565000
0$
0"
1#
00
01
1/
#570000
1!
1.
02
1&
1%
#575000
1$
0#
10
0/
#580000
0$
1#
00
1/
#585000
1"
1$
0#
11
10
0/
#590000
0!
0"
0.
01
12
0&
0%
#595000
1!
1"
1.
11
02
1&
1%
#600000
0$
1#
00
1/
#605000
0"
01
#610000
0!
0.
12
0&
0%
#615000
0#
0/
#620000
1$
1#
10
1/
#625000
1"
0#
11
0/
#635000
0$
0"
00
01
#640000
1#
1$
1/
10
#645000
1!
0$
1.
00
02
1&
1%
#650000
0#
0!
1$
0/
0.
10
12
0&
0%
#655000
1#
0$
1/
00
#660000
1!
0#
1$
1.
0/
10
02
1&
1%
#665000
0!
0.
12
0&
0%
#670000
1"
1#
11
1/
02
1&
1%
#675000
0"
01
12
0&
0%
#680000
0$
1!
00
1.
02
1&
1%
#685000
1"
0!
11
0.
12
0&
0%
#690000
0#
1$
0"
0/
10
01
#695000
1"
11
#700000
0$
00
#705000
1!
0"
1$
1.
01
10
02
1&
1%
#710000
0!
1"
0.
11
12
0&
0%
#715000
0$
1!
00
1.
02
1&
1%
#720000
1$
10
#725000
1#
0$
1/
00
#730000
0!
1$
0.
10
#735000
0"
1!
0$
01
1.
00
#740000
1"
11
#745000
0#
0!
0/
0.
12
0&
0%
#750000
1$
0"
1!
10
01
1.
02
1&
1%
#755000
1#
0$
1"
0!
1/
00
11
0.
12
0&
0%
#760000
0#
1$
0"
0/
10
01
#765000
1!
0$
1"
1.
00
11
02
1&
1%
#770000
1#
0!
1$
0"
1/
0.
10
01
12
0&
0%
#775000
0$
1"
00
11
#780000
1!
1$
0"
1.
10
01
02
1&
1%
#785000
0$
00
#790000
0#
0!
0/
0.
12
0&
0%
#795000
1"
1#
1!
11
1/
1.
02
1&
1%
#800000
0"
01
#805000
0#
0!
1"
0/
0.
11
12
0&
0%
#810000
1$
1#
0"
10
1/
01
#815000
1!
0$
0#
1.
00
0/
02
1&
1%
#820000
1"
0!
1#
11
0.
1/
12
0&
0%
#825000
1$
0"
0#
10
01
0/
#830000
1!
1"
1#
1.
11
1/
02
1&
1%
#835000
0!
0"
0.
01
12
0&
0%
#840000
0$
0#
1!
1"
00
0/
1.
11
02
1&
1%
#845000
1#
0"
1/
01
#850000
0#
0/
#855000
1$
1"
10
11
#860000
1#
0$
1/
00
#865000
0!
0.
12
0&
0%
#870000
1!
1.
02
1&
1%
#875000
0"
0!
01
0.
12
0&
0%
#885000
1!
1.
02
1&
1%
#890000
0#
1$
1"
0!
0/
10
11
0.
12
0&
0%
#895000
1#
0"
1!
1/
01
1.
02
1&
1%
#900000
0#
1"
0!
0/
11
0.
12
0&
0%
#905000
1#
0"
1!
1/
01
1.
02
1&
1%
#910000
0#
0/
#915000
0$
0!
00
0.
12
0&
0%
#930000
1"
1#
1$
1!
11
1/
10
1.
02
1&
1%
#935000
0!
0.
#940000
0"
0#
01
0/
12
0&
0%
#945000
1#
1/
#950000
0$
1"
0#
00
11
0/
#955000
1#
1/
#960000
1!
1$
0"
0#
1.
10
01
0/
02
1&
1%
#965000
0!
1"
0.
11
12
0&
0%
#970000
0$
1#
1!
00
1/
1.
02
1&
1%
#975000
0#
0/
#980000
0!
0.
12
0&
0%
#985000
0"
1$
1#
1!
01
10
1/
1.
02
1&
1%
#990000
0!
0.
12
0&
0%
#995000
1"
1!
11
1.
02
1&
1%
