semester 2/LogicCircuitDesignAndExperimentation/FourFourBitSRAM/simulation/qsim/FourFourBitSRAM.msim.vcd
$comment
	File created using the following command:
		vcd file FourFourBitSRAM.msim.vcd -direction
$end
$date
	Mon Sep 30 21:25:01 2024
$end
$version
	ModelSim Version 2020.1
$end
$timescale
	1ps
$end

$scope module FourFourBitSRAM_vlg_vec_tst $end
$var reg 2 ! Address [1:0] $end
$var reg 1 " CLK $end
$var reg 4 # DataIn [3:0] $end
$var reg 1 $ RST $end
$var reg 1 % RW $end
$var wire 1 & DataOut [3] $end
$var wire 1 ' DataOut [2] $end
$var wire 1 ( DataOut [1] $end
$var wire 1 ) DataOut [0] $end

$scope module i1 $end
$var wire 1 * gnd $end
$var wire 1 + vcc $end
$var wire 1 , unknown $end
$var tri1 1 - devclrn $end
$var tri1 1 . devpor $end
$var tri1 1 / devoe $end
$var wire 1 0 ~QUARTUS_CREATED_GND~I_combout $end
$var wire 1 1 CLK~input_o $end
$var wire 1 2 Address[1]~input_o $end
$var wire 1 3 RW~input_o $end
$var wire 1 4 Address[0]~input_o $end
$var wire 1 5 inst1|inst~combout $end
$var wire 1 6 DataIn[3]~input_o $end
$var wire 1 7 RST~input_o $end
$var wire 1 8 inst1|inst9~q $end
$var wire 1 9 inst|inst~combout $end
$var wire 1 : inst|inst9~q $end
$var wire 1 ; inst2|inst~combout $end
$var wire 1 < inst2|inst9~q $end
$var wire 1 = inst3|inst~combout $end
$var wire 1 > inst3|inst9~q $end
$var wire 1 ? inst9[3]~12_combout $end
$var wire 1 @ DataIn[2]~input_o $end
$var wire 1 A inst2|inst8~feeder_combout $end
$var wire 1 B inst2|inst8~q $end
$var wire 1 C inst|inst8~feeder_combout $end
$var wire 1 D inst|inst8~q $end
$var wire 1 E inst1|inst8~feeder_combout $end
$var wire 1 F inst1|inst8~q $end
$var wire 1 G inst3|inst8~q $end
$var wire 1 H inst9[2]~8_combout $end
$var wire 1 I DataIn[1]~input_o $end
$var wire 1 J inst1|inst7~q $end
$var wire 1 K inst|inst7~feeder_combout $end
$var wire 1 L inst|inst7~q $end
$var wire 1 M inst2|inst7~feeder_combout $end
$var wire 1 N inst2|inst7~q $end
$var wire 1 O inst3|inst7~feeder_combout $end
$var wire 1 P inst3|inst7~q $end
$var wire 1 Q inst9[1]~4_combout $end
$var wire 1 R DataIn[0]~input_o $end
$var wire 1 S inst1|inst6~q $end
$var wire 1 T inst|inst6~feeder_combout $end
$var wire 1 U inst|inst6~q $end
$var wire 1 V inst2|inst6~q $end
$var wire 1 W inst3|inst6~q $end
$var wire 1 X inst9[0]~0_combout $end
$upscope $end
$upscope $end
$enddefinitions $end
#0
$dumpvars
b0 !
0"
b0 #
1$
0%
0)
0(
0'
0&
0*
1+
x,
1-
1.
1/
00
01
02
03
04
05
06
17
08
09
0:
0;
0<
0=
0>
0?
0@
0A
0B
0C
0D
0E
0F
0G
0H
0I
0J
0K
0L
0M
0N
0O
0P
0Q
0R
0S
0T
0U
0V
0W
0X
$end
#10000
1"
11
#20000
0"
01
#30000
1"
11
#40000
1%
b10 !
b11 !
b1000 #
b1001 #
0"
13
1R
16
14
12
01
1T
#50000
1"
11
19
1U
1:
#60000
0%
b1 !
b0 !
b1 #
b0 #
0"
03
0R
06
04
02
01
09
0T
#70000
1"
11
#80000
0"
01
#90000
b10 !
b11 !
1"
14
12
11
1X
1?
1&
1)
#100000
0"
01
#110000
b1 !
b0 !
1"
04
02
11
0X
0?
0&
0)
#120000
b100 #
b110 #
1%
b1 !
0"
13
14
1I
1@
01
1E
1C
1A
1O
1M
1K
#130000
1"
11
1;
1N
1B
#140000
b10 #
b0 #
0%
b0 !
0"
03
04
0I
0@
01
0;
0E
0C
0A
0O
0M
0K
#150000
1"
11
#160000
0"
01
#170000
b10 !
b11 !
1"
14
12
11
1X
1?
1&
1)
#180000
0"
01
#190000
1"
11
#200000
0"
01
#210000
1"
11
#220000
b1 !
b0 !
0"
04
02
01
0X
0?
0&
0)
#230000
1"
11
#240000
0"
01
#250000
b1 !
1"
14
11
1Q
1H
1'
1(
#260000
0"
01
#270000
1"
11
#280000
0"
01
#290000
1"
11
#300000
b0 !
0"
04
01
0Q
0H
0'
0(
#310000
1"
11
#320000
0"
01
#330000
1"
11
#340000
0"
01
#350000
1"
11
#360000
0"
01
#370000
1"
11
#380000
0"
01
#390000
1"
11
#400000
0"
01
#410000
1"
11
#420000
0"
01
#430000
1"
11
#440000
0"
01
#450000
1"
11
#460000
0"
01
#470000
1"
11
#480000
0"
01
#490000
1"
11
#500000
0"
01
#510000
1"
11
#520000
0"
01
#530000
1"
11
#540000
0"
01
#550000
1"
11
#560000
0"
01
#570000
1"
11
#580000
0"
01
#590000
1"
11
#600000
0"
01
#610000
1"
11
#620000
0"
01
#630000
1"
11
#640000
0"
01
#650000
1"
11
#660000
0"
01
#670000
1"
11
#680000
0"
01
#690000
1"
11
#700000
0"
01
#710000
1"
11
#720000
0"
01
#730000
1"
11
#740000
0"
01
#750000
1"
11
#760000
0"
01
#770000
1"
11
#780000
0"
01
#790000
1"
11
#800000
0"
01
#810000
1"
11
#820000
0"
01
#830000
1"
11
#840000
0"
01
#850000
1"
11
#860000
0"
01
#870000
1"
11
#880000
0"
01
#890000
1"
11
#900000
0"
01
#910000
1"
11
#920000
0"
01
#930000
1"
11
#940000
0"
01
#950000
1"
11
#960000
0"
01
#970000
1"
11
#980000
0"
01
#990000
1"
11
