semester 2/LogicCircuitDesignAndExperimentation/FourBitShiftRegister/simulation/qsim/FourBitShiftRegister.msim.vcd
$comment
	File created using the following command:
		vcd file FourBitShiftRegister.msim.vcd -direction
$end
$date
	Fri Sep 27 06:37:11 2024
$end
$version
	ModelSim Version 2020.1
$end
$timescale
	1ps
$end

$scope module FourBitShiftRegister_vlg_vec_tst $end
$var reg 1 ! CLK $end
$var reg 1 " Din $end
$var reg 1 # RST $end
$var wire 1 $ Q1 $end
$var wire 1 % Q2 $end
$var wire 1 & Q3 $end
$var wire 1 ' Q4 $end

$scope module i1 $end
$var wire 1 ( gnd $end
$var wire 1 ) vcc $end
$var wire 1 * unknown $end
$var tri1 1 + devclrn $end
$var tri1 1 , devpor $end
$var tri1 1 - devoe $end
$var wire 1 . ~QUARTUS_CREATED_GND~I_combout $end
$var wire 1 / CLK~input_o $end
$var wire 1 0 CLK~inputCLKENA0_outclk $end
$var wire 1 1 Din~input_o $end
$var wire 1 2 RST~input_o $end
$var wire 1 3 inst~q $end
$var wire 1 4 inst1~feeder_combout $end
$var wire 1 5 inst1~DUPLICATE_q $end
$var wire 1 6 inst1~q $end
$var wire 1 7 inst2~feeder_combout $end
$var wire 1 8 inst2~DUPLICATE_q $end
$var wire 1 9 inst2~q $end
$var wire 1 : inst3~feeder_combout $end
$var wire 1 ; inst3~q $end
$upscope $end
$upscope $end
$enddefinitions $end
#0
$dumpvars
0!
0"
1#
0$
0%
0&
0'
0(
1)
x*
1+
1,
1-
0.
0/
00
01
12
03
04
05
06
07
08
09
0:
0;
$end
#10000
1!
1/
10
#20000
0!
0/
00
#30000
1!
1/
10
#40000
0!
0/
00
#50000
1!
1/
10
#60000
0!
0/
00
#70000
1"
1!
11
1/
10
13
1$
14
#75000
0"
01
#80000
0!
0/
00
#90000
1!
1/
10
16
15
03
0$
1%
17
04
#100000
0!
0/
00
#110000
1!
1/
10
19
06
18
05
0%
1&
07
1:
#120000
0!
0/
00
#130000
1"
1!
11
1/
10
09
1;
08
13
1$
0&
1'
0:
14
#140000
0!
0/
00
#150000
0"
1!
01
1/
10
16
0;
15
03
0$
1%
0'
17
04
#160000
0!
0/
00
#170000
1!
1/
10
19
06
18
05
0%
1&
07
1:
#180000
0!
0/
00
#190000
1"
1!
11
1/
10
09
1;
08
13
1$
0&
1'
0:
14
#200000
0!
0/
00
#210000
1!
1/
10
16
0;
15
1%
0'
17
#220000
0!
0/
00
#230000
1!
1/
10
19
18
1&
1:
#240000
0!
0/
00
#250000
0"
1!
01
1/
10
1;
03
0$
1'
04
#260000
0!
0/
00
#270000
1!
1/
10
06
05
0%
07
#280000
0!
0/
00
#290000
1!
1/
10
09
08
0&
0:
#300000
0!
0/
00
#310000
1!
1/
10
0;
0'
#320000
0!
0/
00
#330000
1!
1/
10
#340000
0!
0/
00
#350000
1!
1/
10
#360000
0!
0/
00
#370000
1!
1/
10
#380000
0!
0/
00
#390000
0#
1!
02
1/
10
#400000
0!
0/
00
#410000
1!
1/
10
#420000
0!
0/
00
#430000
1!
1/
10
#440000
0!
0/
00
#450000
1!
1/
10
#460000
0!
0/
00
#470000
1!
1/
10
#480000
0!
0/
00
#490000
1!
1/
10
#500000
0!
0/
00
#510000
1!
1/
10
#520000
0!
0/
00
#530000
1!
1/
10
#540000
0!
0/
00
#550000
1!
1/
10
#560000
0!
0/
00
#570000
1!
1/
10
#580000
0!
0/
00
#590000
1!
1/
10
#600000
0!
0/
00
#610000
1!
1/
10
#620000
0!
0/
00
#630000
1!
1/
10
#640000
0!
0/
00
#650000
1!
1/
10
#660000
0!
0/
00
#670000
1!
1/
10
#680000
0!
0/
00
#690000
1!
1/
10
#700000
0!
0/
00
#710000
1!
1/
10
#720000
0!
0/
00
#730000
1!
1/
10
#740000
0!
0/
00
#750000
1!
1/
10
#760000
0!
0/
00
#770000
1!
1/
10
#780000
0!
0/
00
#790000
1!
1/
10
#800000
0!
0/
00
#810000
1!
1/
10
#820000
0!
0/
00
#830000
1!
1/
10
#840000
0!
0/
00
#850000
1!
1/
10
#860000
0!
0/
00
#870000
1!
1/
10
#880000
0!
0/
00
#890000
1!
1/
10
#900000
0!
0/
00
#910000
1!
1/
10
#920000
0!
0/
00
#930000
1!
1/
10
#940000
0!
0/
00
#950000
1!
1/
10
#960000
0!
0/
00
#970000
1!
1/
10
#980000
0!
0/
00
#990000
1!
1/
10
