semester 2/LogicCircuitDesignAndExperimentation/SyncDFlipFlopWithAsyncReset/simulation/qsim/SyncDFlipFlopWithAsyncReset.msim.vcd
$comment
	File created using the following command:
		vcd file SyncDFlipFlopWithAsyncReset.msim.vcd -direction
$end
$date
	Mon Sep 23 18:48:03 2024
$end
$version
	ModelSim Version 2020.1
$end
$timescale
	1ps
$end

$scope module SyncDFlipFlopWithAsyncReset_vlg_vec_tst $end
$var reg 1 ! CLK $end
$var reg 1 " Din $end
$var reg 1 # Reset $end
$var wire 1 $ Qout $end

$scope module i1 $end
$var wire 1 % gnd $end
$var wire 1 & vcc $end
$var wire 1 ' unknown $end
$var tri1 1 ( devclrn $end
$var tri1 1 ) devpor $end
$var tri1 1 * devoe $end
$var wire 1 + ~QUARTUS_CREATED_GND~I_combout $end
$var wire 1 , CLK~input_o $end
$var wire 1 - Din~input_o $end
$var wire 1 . inst~feeder_combout $end
$var wire 1 / Reset~input_o $end
$var wire 1 0 inst~q $end
$upscope $end
$upscope $end
$enddefinitions $end
#0
$dumpvars
0!
0"
0#
0$
0%
1&
x'
1(
1)
1*
0+
0,
0-
0.
0/
00
$end
#30000
1#
1/
#70000
1!
1"
1-
1,
1.
#110000
0"
0-
0.
#140000
0!
0,
#190000
1"
1-
1.
#210000
1!
1,
10
1$
#240000
0"
0-
0.
#330000
0!
0,
#360000
0#
0/
00
0$
#380000
1#
1/
#400000
1"
1!
1-
1,
1.
#440000
0"
0-
0.
#470000
0#
0/
#560000
0!
0,
