semester 2/LogicCircuitDesignAndExperimentation/DoubleFourBitsRegister/simulation/qsim/DoubleFourBitsRegister.msim.vcd
$comment
	File created using the following command:
		vcd file DoubleFourBitsRegister.msim.vcd -direction
$end
$date
	Fri Oct 18 19:30:35 2024
$end
$version
	ModelSim Version 2020.1
$end
$timescale
	1ps
$end

$scope module DoubleFourBitsRegister_vlg_vec_tst $end
$var reg 1 ! Ce $end
$var reg 1 " CLK $end
$var reg 1 # d1 $end
$var reg 1 $ d2 $end
$var reg 1 % d3 $end
$var reg 1 & d4 $end
$var reg 1 ' RST $end
$var wire 1 ( a1 $end
$var wire 1 ) a2 $end
$var wire 1 * a3 $end
$var wire 1 + a4 $end
$var wire 1 , b1 $end
$var wire 1 - b2 $end
$var wire 1 . b3 $end
$var wire 1 / b4 $end

$scope module i1 $end
$var wire 1 0 gnd $end
$var wire 1 1 vcc $end
$var wire 1 2 unknown $end
$var tri1 1 3 devclrn $end
$var tri1 1 4 devpor $end
$var tri1 1 5 devoe $end
$var wire 1 6 ~QUARTUS_CREATED_GND~I_combout $end
$var wire 1 7 Ce~input_o $end
$var wire 1 8 CLK~input_o $end
$var wire 1 9 inst|inst~combout $end
$var wire 1 : d1~input_o $end
$var wire 1 ; inst|inst6~feeder_combout $end
$var wire 1 < RST~input_o $end
$var wire 1 = inst|inst6~q $end
$var wire 1 > d2~input_o $end
$var wire 1 ? inst|inst7~feeder_combout $end
$var wire 1 @ inst|inst7~q $end
$var wire 1 A d3~input_o $end
$var wire 1 B inst|inst8~q $end
$var wire 1 C d4~input_o $end
$var wire 1 D inst|inst9~feeder_combout $end
$var wire 1 E inst|inst9~q $end
$var wire 1 F inst3|inst~combout $end
$var wire 1 G inst3|inst6~q $end
$var wire 1 H inst3|inst7~q $end
$var wire 1 I inst3|inst8~feeder_combout $end
$var wire 1 J inst3|inst8~q $end
$var wire 1 K inst3|inst9~feeder_combout $end
$var wire 1 L inst3|inst9~q $end
$upscope $end
$upscope $end
$enddefinitions $end
#0
$dumpvars
0!
0"
0#
0$
0%
0&
1'
0(
0)
0*
0+
0,
0-
0.
0/
00
11
x2
13
14
15
06
07
08
09
0:
0;
1<
0=
0>
0?
0@
0A
0B
0C
0D
0E
0F
0G
0H
0I
0J
0K
0L
$end
#5000
1"
18
#10000
0"
08
#15000
1"
18
#20000
0"
08
#25000
1"
18
#30000
0"
08
#35000
1"
18
#39900
1#
1$
1:
1>
1?
1;
#40000
1!
0"
17
08
#45000
1"
18
1F
19
1@
1=
1(
1)
#50000
0"
08
0F
09
#55000
1"
18
1F
19
1H
1G
1,
1-
#60000
0#
0$
0!
0"
0:
0>
07
08
0F
09
0?
0;
#65000
1"
18
#70000
0"
08
#75000
1"
18
#80000
0"
08
#85000
1"
18
#90000
1!
0"
17
08
#95000
1"
18
1F
19
0@
0=
0(
0)
#99900
1%
1&
1A
1C
1D
#100000
0"
08
0F
09
#105000
1"
18
1F
19
0H
0G
1E
1B
1*
1+
0,
0-
1I
1K
#110000
0!
0"
07
08
0F
09
#115000
1"
18
#120000
0%
0&
0"
0A
0C
08
0D
#125000
1"
18
#130000
0"
08
#135000
1"
18
#140000
0"
08
#145000
1"
18
#150000
0"
08
#155000
1"
18
#160000
0"
08
#165000
1"
18
#170000
0"
08
#175000
1"
18
#180000
0"
08
#185000
1"
18
#190000
0"
08
#195000
1"
18
#200000
0"
08
#205000
1"
18
#210000
0"
08
#215000
1"
18
#220000
0"
08
#225000
1"
18
#230000
0"
08
#235000
1"
18
#240000
0"
08
#245000
1"
18
#250000
0"
08
#255000
1"
18
#260000
0"
08
#265000
1"
18
#270000
0"
08
#275000
1"
18
#280000
0"
08
#285000
1"
18
#290000
0"
08
#295000
1"
18
#300000
0"
08
#305000
1"
18
#310000
0"
08
#315000
1"
18
#320000
0"
08
#325000
1"
18
#330000
0"
08
#335000
1"
18
#340000
0"
08
#345000
1"
18
#350000
0"
08
#355000
1"
18
#360000
0"
08
#365000
1"
18
#370000
0"
08
#375000
1"
18
#380000
0"
08
#385000
1"
18
#390000
0"
08
#395000
1"
18
#400000
0"
08
#405000
1"
18
#410000
0"
08
#415000
1"
18
#420000
0"
08
#425000
1"
18
#430000
0"
08
#435000
1"
18
#440000
0"
08
#445000
1"
18
#450000
0"
08
#455000
1"
18
#460000
0"
08
#465000
1"
18
#470000
0"
08
#475000
1"
18
#480000
0"
08
#485000
1"
18
#490000
0"
08
#495000
1"
18
#500000
0"
08
#505000
1"
18
#510000
0"
08
#515000
1"
18
#520000
0"
08
#525000
1"
18
#530000
0"
08
#535000
1"
18
#540000
0"
08
#545000
1"
18
#550000
0"
08
#555000
1"
18
#560000
0"
08
#565000
1"
18
#570000
0"
08
#575000
1"
18
#580000
0"
08
#585000
1"
18
#590000
0"
08
#595000
1"
18
#600000
0"
08
#605000
1"
18
#610000
0"
08
#615000
1"
18
#620000
0"
08
#625000
1"
18
#630000
0"
08
#635000
1"
18
#640000
0"
08
#645000
1"
18
#650000
0"
08
#655000
1"
18
#660000
0"
08
#665000
1"
18
#670000
0"
08
#675000
1"
18
#680000
0"
08
#685000
1"
18
#690000
0"
08
#695000
1"
18
#700000
0"
08
#705000
1"
18
#710000
0"
08
#715000
1"
18
#720000
0"
08
#725000
1"
18
#730000
0"
08
#735000
1"
18
#740000
0"
08
#745000
1"
18
#750000
0"
08
#755000
1"
18
#760000
0"
08
#765000
1"
18
#770000
0"
08
#775000
1"
18
#780000
0"
08
#785000
1"
18
#790000
0"
08
#795000
1"
18
#800000
0"
08
#805000
1"
18
#810000
0"
08
#815000
1"
18
#820000
0"
08
#825000
1"
18
#830000
0"
08
#835000
1"
18
#840000
0"
08
#845000
1"
18
#850000
0"
08
#855000
1"
18
#860000
0"
08
#865000
1"
18
#870000
0"
08
#875000
1"
18
#880000
0"
08
#885000
1"
18
#890000
0"
08
#895000
1"
18
#900000
0"
08
#905000
1"
18
#910000
0"
08
#915000
1"
18
#920000
0"
08
#925000
1"
18
#930000
0"
08
#935000
1"
18
#940000
0"
08
#945000
1"
18
#950000
0"
08
#955000
1"
18
#960000
0"
08
#965000
1"
18
#970000
0"
08
#975000
1"
18
#980000
0"
08
#985000
1"
18
#990000
0"
08
#995000
1"
18
