semester 2/LogicCircuitDesignAndExperimentation/DoubleFourBitsRegister/simulation/qsim/DoubleFourBitsRegister.msim.vcd
$comment
	File created using the following command:
		vcd file DoubleFourBitsRegister.msim.vcd -direction
$end
$date
	Mon Sep 23 21:16:51 2024
$end
$version
	ModelSim Version 2020.1
$end
$timescale
	1ps
$end

$scope module DoubleFourBitsRegister_vlg_vec_tst $end
$var reg 1 ! Ce $end
$var reg 1 " CLK $end
$var reg 1 # d1 $end
$var reg 1 $ d2 $end
$var reg 1 % d3 $end
$var reg 1 & d4 $end
$var reg 1 ' RST $end
$var wire 1 ( a1 $end
$var wire 1 ) a2 $end
$var wire 1 * a3 $end
$var wire 1 + a4 $end
$var wire 1 , b1 $end
$var wire 1 - b2 $end
$var wire 1 . b3 $end
$var wire 1 / b4 $end

$scope module i1 $end
$var wire 1 0 gnd $end
$var wire 1 1 vcc $end
$var wire 1 2 unknown $end
$var tri1 1 3 devclrn $end
$var tri1 1 4 devpor $end
$var tri1 1 5 devoe $end
$var wire 1 6 ~QUARTUS_CREATED_GND~I_combout $end
$var wire 1 7 Ce~input_o $end
$var wire 1 8 CLK~input_o $end
$var wire 1 9 inst|inst~combout $end
$var wire 1 : d1~input_o $end
$var wire 1 ; inst|inst6~feeder_combout $end
$var wire 1 < RST~input_o $end
$var wire 1 = inst|inst6~q $end
$var wire 1 > d2~input_o $end
$var wire 1 ? inst|inst7~feeder_combout $end
$var wire 1 @ inst|inst7~q $end
$var wire 1 A d3~input_o $end
$var wire 1 B inst|inst8~q $end
$var wire 1 C d4~input_o $end
$var wire 1 D inst|inst9~feeder_combout $end
$var wire 1 E inst|inst9~q $end
$var wire 1 F inst3|inst~combout $end
$var wire 1 G inst3|inst6~q $end
$var wire 1 H inst3|inst7~q $end
$var wire 1 I inst3|inst8~feeder_combout $end
$var wire 1 J inst3|inst8~q $end
$var wire 1 K inst3|inst9~feeder_combout $end
$var wire 1 L inst3|inst9~q $end
$upscope $end
$upscope $end
$enddefinitions $end
#0
$dumpvars
0!
1"
0#
0$
0%
0&
1'
0(
0)
0*
0+
0,
0-
0.
0/
00
11
x2
13
14
15
06
07
18
09
0:
0;
1<
0=
0>
0?
0@
0A
0B
0C
0D
0E
0F
0G
0H
0I
0J
0K
0L
$end
#10000
0"
08
#20000
1"
18
#30000
0"
08
#40000
1!
1#
1$
1"
17
1:
1>
18
1F
19
1?
1;
#50000
0"
08
0F
09
#60000
0!
0#
0$
07
0:
0>
0?
0;
#90000
1!
17
#100000
1%
1&
1"
1A
1C
18
1F
19
1D
1B
1*
1I
#110000
0!
0"
07
08
0F
09
#120000
0%
0&
0A
0C
0D
#180000
1"
18
#190000
0"
08
#200000
1"
18
#210000
0"
08
#220000
1"
18
#230000
0"
08
#240000
1"
18
#250000
0"
08
#260000
1"
18
#270000
0"
08
#280000
1"
18
#290000
0"
08
#300000
1"
18
#310000
0"
08
#320000
1"
18
#330000
0"
08
#340000
1"
18
#350000
0"
08
#360000
1"
18
#370000
0"
08
#380000
1"
18
#390000
0"
08
#400000
1"
18
#410000
0"
08
#420000
1"
18
#430000
0"
08
#440000
1"
18
#450000
0"
08
#460000
1"
18
#470000
0"
08
#480000
1"
18
#490000
0"
08
#500000
1"
18
#510000
0"
08
#520000
1"
18
#530000
0"
08
#540000
1"
18
#550000
0"
08
#560000
1"
18
#570000
0"
08
#580000
1"
18
#590000
0"
08
#600000
1"
18
#610000
0"
08
#620000
1"
18
#630000
0"
08
#640000
1"
18
#650000
0"
08
#660000
1"
18
#670000
0"
08
#680000
1"
18
#690000
0"
08
#700000
1"
18
#710000
0"
08
#720000
1"
18
#730000
0"
08
#740000
1"
18
#750000
0"
08
#760000
1"
18
#770000
0"
08
#780000
1"
18
#790000
0"
08
#800000
1"
18
#810000
0"
08
#820000
1"
18
#830000
0"
08
#840000
1"
18
#850000
0"
08
#860000
1"
18
#870000
0"
08
#880000
1"
18
#890000
0"
08
#900000
1"
18
#910000
0"
08
#920000
1"
18
#930000
0"
08
#940000
1"
18
#950000
0"
08
#960000
1"
18
#970000
0"
08
#980000
1"
18
#990000
0"
08
